[
    {
        "class": "CViewModel_ElementRelay",
        "customData": {},
        "dataPathStrList": [
            "EntityGroups.EGrpType",
            "EntityGroups.EGrpSize",
            "EntityGroups.EGrpOffset",
            "EntityGroups.NofDeployedLGens",
            "EntityGroups.EGrpLGenPool"
        ],
        "dataPathList": [
            [
                2,
                0
            ],
            [
                2,
                1
            ],
            [
                2,
                2
            ],
            [
                2,
                3
            ],
            [
                2,
                4
            ]
        ],
        "selectionToControlPathStrList": [],
        "selectionToControlPathList": []
    },
    {
        "class": "CViewModel_ElementRelay",
        "customData": {},
        "dataPathStrList": [
            "EntityGroups.Scenarios.ScInstanceName"
        ],
        "dataPathList": [
            [
                2,
                7,
                0
            ]
        ],
        "selectionToControlPathStrList": [],
        "selectionToControlPathList": []
    },
    {
        "class": "CViewModel_ElementRelay",
        "customData": {},
        "dataPathStrList": [
            "EntityGroups.Scenarios.ScStatus"
        ],
        "dataPathList": [
            [
                2,
                7,
                1
            ]
        ],
        "selectionToControlPathStrList": [],
        "selectionToControlPathList": []
    },
    {
        "class": "CViewModel_ElementRelay",
        "customData": {},
        "dataPathStrList": [
            "EntityGroups.Scenarios.IsInScGroup.ScPhaseListName"
        ],
        "dataPathList": [
            [
                2,
                7,
                5,
                1
            ]
        ],
        "selectionToControlPathStrList": [],
        "selectionToControlPathList": []
    },
    {
        "class": "CViewModel_ElementRelay",
        "customData": {},
        "dataPathStrList": [
            "EntityGroups.Scenarios.IsWeightedSc.CurrentCPS"
        ],
        "dataPathList": [
            [
                2,
                7,
                6,
                0
            ]
        ],
        "selectionToControlPathStrList": [],
        "selectionToControlPathList": []
    },
    {
        "class": "CViewModel_ElementRelay",
        "customData": {},
        "dataPathStrList": [
            "EntityGroups.Scenarios.IsWeightedSc.ScTargetCPS"
        ],
        "dataPathList": [
            [
                2,
                7,
                6,
                1
            ]
        ],
        "selectionToControlPathStrList": [],
        "selectionToControlPathList": []
    },
    {
        "class": "CViewModel_ElementRelay",
        "customData": {},
        "dataPathStrList": [
            "EntityGroups.Scenarios.IsWeightedSc.ScRegulatorName",
            "EntityGroups.Scenarios.IsWeightedSc.Regulators"
        ],
        "dataPathList": [
            [
                2,
                7,
                6,
                2
            ],
            [
                2,
                7,
                6,
                6
            ]
        ],
        "selectionToControlPathStrList": [],
        "selectionToControlPathList": []
    },
    {
        "class": "CViewModel_ElementRelay",
        "customData": {},
        "dataPathStrList": [
            "EntityGroups.Scenarios.IsInScGroup.ScGrpCurrentPhase",
            "EntityGroups.Scenarios.IsInScGroup.Phases"
        ],
        "dataPathList": [
            [
                2,
                7,
                5,
                3
            ],
            [
                2,
                7,
                5,
                2
            ]
        ],
        "selectionToControlPathStrList": [],
        "selectionToControlPathList": []
    },
    {
        "class": "CViewModel_ElementRelay",
        "customData": {},
        "dataPathStrList": [
            "EntityGroups.Scenarios.IsInScGroup.ScGrpMode"
        ],
        "dataPathList": [
            [
                2,
                7,
                5,
                4
            ]
        ],
        "selectionToControlPathStrList": [],
        "selectionToControlPathList": []
    },
    {
        "class": "CViewModel_ElementRelay",
        "customData": {},
        "dataPathStrList": [
            "EntityGroups.Scenarios.IsInScGroup.ScGrpStatus"
        ],
        "dataPathList": [
            [
                2,
                7,
                5,
                5
            ]
        ],
        "selectionToControlPathStrList": [],
        "selectionToControlPathList": []
    },
    {
        "class": "CViewModel_ElementRelay",
        "customData": {},
        "dataPathStrList": [
            "EntityGroups.Scenarios.IsInScGroup.ScGrpStart"
        ],
        "dataPathList": [
            [
                2,
                7,
                5,
                6
            ]
        ],
        "selectionToControlPathStrList": [],
        "selectionToControlPathList": []
    },
    {
        "class": "CViewModel_ElementRelay",
        "customData": {},
        "dataPathStrList": [
            "EntityGroups.Scenarios.IsInScGroup.ScGrpTerminate"
        ],
        "dataPathList": [
            [
                2,
                7,
                5,
                7
            ]
        ],
        "selectionToControlPathStrList": [],
        "selectionToControlPathList": []
    },
    {
        "class": "CViewModel_ElementRelay",
        "customData": {},
        "dataPathStrList": [
            "EntityGroups.Scenarios.IsInScGroup.ScGrpReset"
        ],
        "dataPathList": [
            [
                2,
                7,
                5,
                8
            ]
        ],
        "selectionToControlPathStrList": [],
        "selectionToControlPathList": []
    },
    {
        "class": "CViewModel_ElementRelay",
        "customData": {},
        "dataPathStrList": [
            "EntityGroups.Scenarios.IsInScGroup.ScGrpScStatus"
        ],
        "dataPathList": [
            [
                2,
                7,
                5,
                9
            ]
        ],
        "selectionToControlPathStrList": [],
        "selectionToControlPathList": []
    },
    {
        "class": "CViewModel_ElementRelay",
        "customData": {},
        "dataPathStrList": [
            "EntityGroups.Scenarios.ScStartButton",
            "EntityGroups.Scenarios.ScStopButton",
            "EntityGroups.Scenarios.ScReset"
        ],
        "dataPathList": [
            [
                2,
                7,
                2
            ],
            [
                2,
                7,
                3
            ],
            [
                2,
                7,
                4
            ]
        ],
        "selectionToControlPathStrList": [],
        "selectionToControlPathList": []
    },
    {
        "class": "CViewModel_Condition",
        "customData": {},
        "dataPathStrList": [
            "EntityGroups.Scenarios.IsWeightedSc"
        ],
        "dataPathList": [
            [
                2,
                7,
                6
            ]
        ],
        "selectionToControlPathStrList": [],
        "selectionToControlPathList": []
    },
    {
        "class": "CViewModel_Condition",
        "customData": {},
        "dataPathStrList": [
            "EntityGroups.Scenarios.IsInScGroup"
        ],
        "dataPathList": [
            [
                2,
                7,
                5
            ]
        ],
        "selectionToControlPathStrList": [],
        "selectionToControlPathList": []
    },
    {
        "class": "CViewModel_TableForLargeData",
        "customData": {
            "header": [
                "Traffic Case",
                "Status",
                "Start",
                "Stop"
            ],
            "streamingThreshold": 10,
            "rangeFilterCount": 10
        },
        "dataPathStrList": [
            "EntityGroups.Scenarios.IsWeightedSc.sizeOf",
            "EntityGroups.Scenarios.TrafficCases"
        ],
        "dataPathList": [
            [
                2,
                7,
                6,
                3
            ],
            [
                2,
                7,
                7
            ]
        ],
        "selectionToControlPathStrList": [],
        "selectionToControlPathList": []
    },
    {
        "class": "CViewModel_ElementRelay",
        "customData": {},
        "dataPathStrList": [
            "EntityGroups.Scenarios.IsWeightedSc.TrafficCases.TcSingleShotEntityIdx",
            "EntityGroups.Scenarios.IsWeightedSc.TrafficCases.TcSingleShotEnableLog",
            "EntityGroups.Scenarios.IsWeightedSc.TrafficCases.TcSingleShotStart"
        ],
        "dataPathList": [
            [
                2,
                7,
                6,
                5,
                11
            ],
            [
                2,
                7,
                6,
                5,
                12
            ],
            [
                2,
                7,
                6,
                5,
                13
            ]
        ],
        "selectionToControlPathStrList": [],
        "selectionToControlPathList": []
    },
    {
        "class": "CViewModel_ElementRelay",
        "customData": {},
        "dataPathStrList": [
            "EntityGroups.Scenarios.IsWeightedSc.TrafficCases.TcStat"
        ],
        "dataPathList": [
            [
                2,
                7,
                6,
                5,
                0
            ]
        ],
        "selectionToControlPathStrList": [],
        "selectionToControlPathList": []
    },
    {
        "class": "CViewModel_ElementRelay",
        "customData": {},
        "dataPathStrList": [
            "EntityGroups.Scenarios.IsWeightedSc.TrafficCases.TcTargetCPSOrWeight"
        ],
        "dataPathList": [
            [
                2,
                7,
                6,
                5,
                1
            ]
        ],
        "selectionToControlPathStrList": [],
        "selectionToControlPathList": []
    },
    {
        "class": "CViewModel_ElementRelay",
        "customData": {},
        "dataPathStrList": [
            "EntityGroups.Scenarios.IsWeightedSc.TrafficCases.TcRegulator",
            "EntityGroups.Scenarios.IsWeightedSc.Regulators"
        ],
        "dataPathList": [
            [
                2,
                7,
                6,
                5,
                2
            ],
            [
                2,
                7,
                6,
                6
            ]
        ],
        "selectionToControlPathStrList": [],
        "selectionToControlPathList": []
    },
    {
        "class": "CViewModel_ElementRelay",
        "customData": {},
        "dataPathStrList": [
            "EntityGroups.Scenarios.IsWeightedSc.TrafficCases.TcGroupFinishStatus"
        ],
        "dataPathList": [
            [
                2,
                7,
                6,
                5,
                3
            ]
        ],
        "selectionToControlPathStrList": [],
        "selectionToControlPathList": []
    },
    {
        "class": "CViewModel_ElementRelay",
        "customData": {},
        "dataPathStrList": [
            "EntityGroups.Scenarios.IsWeightedSc.TrafficCases.TcStatus"
        ],
        "dataPathList": [
            [
                2,
                7,
                6,
                5,
                4
            ]
        ],
        "selectionToControlPathStrList": [],
        "selectionToControlPathList": []
    },
    {
        "class": "CViewModel_ElementRelay",
        "customData": {},
        "dataPathStrList": [
            "EntityGroups.Scenarios.IsWeightedSc.TrafficCases.TcStartButton"
        ],
        "dataPathList": [
            [
                2,
                7,
                6,
                5,
                5
            ]
        ],
        "selectionToControlPathStrList": [],
        "selectionToControlPathList": []
    },
    {
        "class": "CViewModel_ElementRelay",
        "customData": {},
        "dataPathStrList": [
            "EntityGroups.Scenarios.IsWeightedSc.TrafficCases.TcStopButton"
        ],
        "dataPathList": [
            [
                2,
                7,
                6,
                5,
                6
            ]
        ],
        "selectionToControlPathStrList": [],
        "selectionToControlPathList": []
    },
    {
        "class": "CViewModel_Condition",
        "customData": {},
        "dataPathStrList": [
            "EntityGroups.Scenarios.IsWeightedSc.TrafficCases.TcRegulator"
        ],
        "dataPathList": [
            [
                2,
                7,
                6,
                5,
                2
            ]
        ],
        "selectionToControlPathStrList": [],
        "selectionToControlPathList": []
    },
    {
        "class": "CViewModel_ElementRelay",
        "customData": {},
        "dataPathStrList": [
            "EntityGroups.Scenarios.IsWeightedSc.TrafficCases.TcStat",
            "EntityGroups.Scenarios.IsWeightedSc.TrafficCases.TcStat",
            "EntityGroups.Scenarios.IsWeightedSc.TrafficCases.TcStat.TcStat",
            "EntityGroups.Scenarios.IsWeightedSc.TrafficCases.TcStat.TcStat",
            "EntityGroups.Scenarios.IsWeightedSc.TrafficCases.TcStat.TcStat",
            "EntityGroups.Scenarios.IsWeightedSc.TrafficCases.TcStat.TcStat",
            "EntityGroups.Scenarios.IsWeightedSc.TrafficCases.TcStat.TcStat",
            "EntityGroups.Scenarios.IsWeightedSc.TrafficCases.TcStat.TcStat",
            "EntityGroups.Scenarios.IsWeightedSc.TrafficCases.TcStat.TcExecTime",
            "EntityGroups.Scenarios.IsWeightedSc.TrafficCases.TcStat.TcStat",
            "EntityGroups.Scenarios.IsWeightedSc.TrafficCases.TcStat.TcStat",
            "EntityGroups.Scenarios.IsWeightedSc.TrafficCases.TcStat.TcStat",
            "EntityGroups.Scenarios.IsWeightedSc.TrafficCases.TcStat.TcStat",
            "EntityGroups.Scenarios.IsWeightedSc.TrafficCases.TcStat.TcStat",
            "EntityGroups.Scenarios.IsWeightedSc.TrafficCases.TcStat.TcStat",
            "EntityGroups.Scenarios.IsWeightedSc.TrafficCases.TcStat.TcGoS"
        ],
        "dataPathList": [
            [
                2,
                7,
                6,
                5,
                7
            ],
            [
                2,
                7,
                6,
                5,
                7
            ],
            [
                2,
                7,
                6,
                5,
                7,
                0
            ],
            [
                2,
                7,
                6,
                5,
                7,
                1
            ],
            [
                2,
                7,
                6,
                5,
                7,
                2
            ],
            [
                2,
                7,
                6,
                5,
                7,
                3
            ],
            [
                2,
                7,
                6,
                5,
                7,
                4
            ],
            [
                2,
                7,
                6,
                5,
                7,
                5
            ],
            [
                2,
                7,
                6,
                5,
                7,
                6
            ],
            [
                2,
                7,
                6,
                5,
                7,
                7
            ],
            [
                2,
                7,
                6,
                5,
                7,
                8
            ],
            [
                2,
                7,
                6,
                5,
                7,
                9
            ],
            [
                2,
                7,
                6,
                5,
                7,
                10
            ],
            [
                2,
                7,
                6,
                5,
                7,
                11
            ],
            [
                2,
                7,
                6,
                5,
                7,
                12
            ],
            [
                2,
                7,
                6,
                5,
                7,
                13
            ]
        ],
        "selectionToControlPathStrList": [],
        "selectionToControlPathList": []
    },
    {
        "class": "CViewModel_DynamicTable",
        "customData": {
            "iteratorIsHeader": true,
            "transposeTable": true
        },
        "dataPathStrList": [
            "EntityGroups.Scenarios.IsWeightedSc.TrafficCases.FsmStats"
        ],
        "dataPathList": [
            [
                2,
                7,
                6,
                5,
                8
            ]
        ],
        "selectionToControlPathStrList": [],
        "selectionToControlPathList": []
    },
    {
        "class": "CViewModel_ElementRelay",
        "customData": {},
        "dataPathStrList": [
            "EntityGroups.Scenarios.IsWeightedSc.TrafficCases.TcStat.TcStatDelta",
            "EntityGroups.Scenarios.IsWeightedSc.TrafficCases.TcStat.TcStatDelta",
            "EntityGroups.Scenarios.IsWeightedSc.TrafficCases.TcStat.TcStatDelta",
            "EntityGroups.Scenarios.IsWeightedSc.TrafficCases.TcStat.TcStatDelta",
            "EntityGroups.Scenarios.IsWeightedSc.TrafficCases.TcStat.TcStatDelta",
            "EntityGroups.Scenarios.IsWeightedSc.TrafficCases.TcStat.TcStatDelta"
        ],
        "dataPathList": [
            [
                2,
                7,
                6,
                5,
                7,
                14
            ],
            [
                2,
                7,
                6,
                5,
                7,
                14
            ],
            [
                2,
                7,
                6,
                5,
                7,
                15
            ],
            [
                2,
                7,
                6,
                5,
                7,
                16
            ],
            [
                2,
                7,
                6,
                5,
                7,
                17
            ],
            [
                2,
                7,
                6,
                5,
                7,
                18
            ]
        ],
        "selectionToControlPathStrList": [],
        "selectionToControlPathList": []
    },
    {
        "class": "CViewModel_ElementRelay",
        "customData": {},
        "dataPathStrList": [
            "EntityGroups.Scenarios.IsWeightedSc.TrafficCases.TcStat.TcGrpFinishStatus",
            "EntityGroups.Scenarios.IsWeightedSc.TrafficCases.TcStat.TcGrpFinishStatus",
            "EntityGroups.Scenarios.IsWeightedSc.TrafficCases.TcStat.TcGrpFinishStatus",
            "EntityGroups.Scenarios.IsWeightedSc.TrafficCases.TcStat.TcGrpFinishStatus",
            "EntityGroups.Scenarios.IsWeightedSc.TrafficCases.TcStat.TcGrpFinishStatus",
            "EntityGroups.Scenarios.IsWeightedSc.TrafficCases.TcStat.TcGrpFinishStatus",
            "EntityGroups.Scenarios.IsWeightedSc.TrafficCases.TcStat.TcGrpFinishStatus",
            "EntityGroups.Scenarios.IsWeightedSc.TrafficCases.TcStat.TcGrpFinishStatus",
            "EntityGroups.Scenarios.IsWeightedSc.TrafficCases.TcStat.TcGrpFinishStatus"
        ],
        "dataPathList": [
            [
                2,
                7,
                6,
                5,
                7,
                19
            ],
            [
                2,
                7,
                6,
                5,
                7,
                19
            ],
            [
                2,
                7,
                6,
                5,
                7,
                20
            ],
            [
                2,
                7,
                6,
                5,
                7,
                21
            ],
            [
                2,
                7,
                6,
                5,
                7,
                22
            ],
            [
                2,
                7,
                6,
                5,
                7,
                23
            ],
            [
                2,
                7,
                6,
                5,
                7,
                24
            ],
            [
                2,
                7,
                6,
                5,
                7,
                25
            ],
            [
                2,
                7,
                6,
                5,
                7,
                26
            ]
        ],
        "selectionToControlPathStrList": [],
        "selectionToControlPathList": []
    },
    {
        "class": "CViewModel_TableForLargeData",
        "customData": {
            "allowScrollBelow": false,
            "streamingThreshold": 20,
            "rangeFilterCount": 20,
            "name": "Select entitygroup"
        },
        "dataPathStrList": [
            "sizeOf",
            "EntityGroups"
        ],
        "dataPathList": [
            [
                0
            ],
            [
                1
            ]
        ],
        "selectionToControlPathStrList": [
            "EntityGroups"
        ],
        "selectionToControlPathList": [
            [
                2
            ]
        ]
    },
    {
        "class": "CViewModel_FlexAligner",
        "customData": {},
        "dataPathStrList": [],
        "dataPathList": [],
        "selectionToControlPathStrList": [],
        "selectionToControlPathList": []
    },
    {
        "class": "CViewModel_TableForLargeData",
        "customData": {
            "name": "Select scenario",
            "allowScrollBelow": false,
            "streamingThreshold": 18,
            "rangeFilterCount": 18
        },
        "dataPathStrList": [
            "EntityGroups.sizeOf",
            "EntityGroups.Scenarios"
        ],
        "dataPathList": [
            [
                2,
                5
            ],
            [
                2,
                6
            ]
        ],
        "selectionToControlPathStrList": [
            "EntityGroups.Scenarios"
        ],
        "selectionToControlPathList": [
            [
                2,
                7
            ]
        ]
    },
    {
        "class": "CViewModel_TableForLargeData",
        "customData": {
            "name": "Select traffic case",
            "streamingThreshold": 12,
            "rangeFilterCount": 12,
            "allowScrollBelow": false
        },
        "dataPathStrList": [
            "EntityGroups.Scenarios.IsWeightedSc.sizeOf",
            "EntityGroups.Scenarios.IsWeightedSc.TrafficCases"
        ],
        "dataPathList": [
            [
                2,
                7,
                6,
                3
            ],
            [
                2,
                7,
                6,
                4
            ]
        ],
        "selectionToControlPathStrList": [
            "EntityGroups.Scenarios.IsWeightedSc.TrafficCases"
        ],
        "selectionToControlPathList": [
            [
                2,
                7,
                6,
                5
            ]
        ]
    },
    {
        "class": "CViewModel_RequestToggle",
        "customData": {
            "toggleGroups": [
                0,
                2
            ]
        },
        "dataPathStrList": [
            "EntityGroups.Scenarios.IsWeightedSc.TrafficCases",
            "EntityGroups.Scenarios.IsWeightedSc.TrafficCases",
            "EntityGroups.Scenarios.TrafficCases"
        ],
        "dataPathList": [
            [
                2,
                7,
                6,
                4
            ],
            [
                2,
                7,
                6,
                5
            ],
            [
                2,
                7,
                7
            ]
        ],
        "selectionToControlPathStrList": [],
        "selectionToControlPathList": []
    },
    {
        "class": "CViewModel_RequestToggle",
        "customData": {
            "toggleGroups": [
                0,
                1,
                2
            ]
        },
        "dataPathStrList": [
            "EntityGroups.Scenarios.IsWeightedSc.TrafficCases.TcStat",
            "EntityGroups.Scenarios.IsWeightedSc.TrafficCases.FsmStats",
            "EntityGroups.Scenarios.IsWeightedSc.TrafficCases.TcStat",
            "EntityGroups.Scenarios.IsWeightedSc.TrafficCases.TcTargetCPSOrWeight"
        ],
        "dataPathList": [
            [
                2,
                7,
                6,
                5,
                7
            ],
            [
                2,
                7,
                6,
                5,
                8
            ],
            [
                2,
                7,
                6,
                5,
                9
            ],
            [
                2,
                7,
                6,
                5,
                10
            ]
        ],
        "selectionToControlPathStrList": [],
        "selectionToControlPathList": []
    },
    {
        "class": "CViewModel_ElementRelay",
        "customData": {},
        "dataPathStrList": [
            "EntityGroups.Scenarios.IsInScGroup.ScScGrpName"
        ],
        "dataPathList": [
            [
                2,
                7,
                5,
                0
            ]
        ],
        "selectionToControlPathStrList": [],
        "selectionToControlPathList": []
    },
    {
        "class": "CViewModel_Chart",
        "customData": {
            "dataSet": [
                {
                    "label": "Current CPS",
                    "color": "#FF0000"
                },
                {
                    "label": "Target CPS",
                    "color": "#00FF00"
                }
            ]
        },
        "dataPathStrList": [
            "EntityGroups.Scenarios.IsWeightedSc.TrafficCases.TcStat",
            "EntityGroups.Scenarios.IsWeightedSc.TrafficCases.TcTargetCPSOrWeight"
        ],
        "dataPathList": [
            [
                2,
                7,
                6,
                5,
                9
            ],
            [
                2,
                7,
                6,
                5,
                10
            ]
        ],
        "selectionToControlPathStrList": [],
        "selectionToControlPathList": []
    }
]