[
    {
        "class": "CViewModel_ElementRelay",
        "customData": {},
        "dataPathStrList": [
            "EntityGroups.Scenarios.ScStartButton"
        ],
        "dataPathList": [
            [
                0,
                0,
                0
            ]
        ],
        "selectionToControlPathStrList": [],
        "selectionToControlPathList": []
    },
    {
        "class": "CViewModel_ElementRelay",
        "customData": {},
        "dataPathStrList": [
            "EntityGroups.Scenarios.ScStatus"
        ],
        "dataPathList": [
            [
                0,
                0,
                1
            ]
        ],
        "selectionToControlPathStrList": [],
        "selectionToControlPathList": []
    },
    {
        "class": "CViewModel_RequestManipulator",
        "customData": {},
        "dataPathStrList": [
            "EntityGroups.Scenarios.ScStartButton"
        ],
        "dataPathList": [
            [
                0,
                0,
                0
            ]
        ],
        "selectionToControlPathStrList": [],
        "selectionToControlPathList": []
    }
]