{
    "ViewmodelEditors": [
        {
            "pos": {
                "top": 46,
                "left": 252
            },
            "visible": true
        },
        {
            "pos": {
                "top": 211,
                "left": 187
            },
            "visible": true
        }
    ],
    "ViewEditors": [
        {
            "pos": {
                "top": 26,
                "left": 489
            },
            "visible": true
        },
        {
            "pos": {
                "top": 140,
                "left": 555
            },
            "visible": true
        },
        {
            "pos": {
                "top": 278,
                "left": 489
            },
            "visible": true
        },
        {
            "pos": {
                "top": 127,
                "left": 786
            },
            "visible": true
        },
        {
            "pos": {
                "top": 116,
                "left": 1045
            },
            "visible": true
        }
    ],
    "Imports": [],
    "HtmlEditor": {
        "pos": {
            "top": 0,
            "left": 970
        },
        "visible": true
    },
    "RequestEditor": {}
}