{
    "ViewmodelEditors": [
        {
            "pos": {
                "top": 251,
                "left": 74
            },
            "visible": false
        },
        {
            "pos": {
                "top": 214,
                "left": 410
            },
            "visible": false
        }
    ],
    "ViewEditors": [
        {
            "pos": {
                "top": 177,
                "left": 697.0000610351562
            },
            "visible": false
        },
        {
            "pos": {
                "top": 276,
                "left": 679.0000610351562
            },
            "visible": false
        },
        {
            "pos": {
                "top": 240,
                "left": 749.0000610351562
            },
            "visible": false
        },
        {
            "pos": {
                "top": 207,
                "left": 883.0000610351562
            },
            "visible": false
        },
        {
            "pos": {
                "top": 95,
                "left": 478
            },
            "visible": false
        },
        {
            "pos": {
                "top": 144,
                "left": 481
            },
            "visible": false
        },
        {
            "pos": {
                "top": 323,
                "left": 572
            },
            "visible": false
        },
        {
            "pos": {
                "top": 370,
                "left": 578
            },
            "visible": false
        },
        {
            "pos": {
                "top": 420,
                "left": 618
            },
            "visible": false
        },
        {
            "pos": {
                "top": 503,
                "left": 520
            },
            "visible": false
        }
    ],
    "HtmlEditor": {
        "pos": {
            "top": 160,
            "left": 1005.0000610351562
        },
        "visible": false
    },
    "RequestEditor": {}
}