<!--Copyright (c) 2000-2023 Ericsson Telecom AB

All rights reserved. This program and the accompanying materials
are made available under the terms of the Eclipse Public License v2.0
which accompanies this distribution, and is available at
http:www.eclipse.org/legal/epl-v10.html                           -->
<!DOCTYPE TITAN_GUI_project_file>
<Project TITAN_version="1.8.pre0 build 1" >
    <General>
        <Project_Name>EPTF_FreeBusyQueue_demo</Project_Name>
        <Executable_Path>bin/EPTF_FreeBusyQueue_demo</Executable_Path>
        <Working_Dir>bin</Working_Dir>
        <Build_Host>alpha</Build_Host>
        <Execution_Mode>Parallel</Execution_Mode>
        <Log_Format>yes</Log_Format>
        <GNU_Make>yes</GNU_Make>
        <Update_Symlinks>yes</Update_Symlinks>
        <Create_Absolute_Symlinks>no</Create_Absolute_Symlinks>
        <Update_Makefile>yes</Update_Makefile>
        <Localhost_Execute>yes</Localhost_Execute>
        <Execute_Command>rsh %host &quot;cd %project_working_dir ; &quot;%executable&quot; %localhost %mctr_port&quot;</Execute_Command>
        <Execute_Hosts>alfa, beta, gamma</Execute_Hosts>
        <UnUsed_List></UnUsed_List>
    </General>
    <Configs>
        <Config>EPTF_FreeBusyQueue_demo.cfg</Config>
    </Configs>
    <Test_Cases>
        <Test_Case>EPTF_FreeBusyQueue_demo.tc_add_remove</Test_Case>
    </Test_Cases>
    <Others>
        <Other>../../src/FreeBusyQueue/EPTF_CLL_FreeBusyQueue.grp</Other>
    </Others>
    <File_Group name="MainFileGroup" >
        <File_Groups>
            <File_Group name="Demo" >
                <File path="EPTF_FreeBusyQueue_demo.ttcn" />
            </File_Group>
            <File_Group path="../../src/Base/EPTF_CLL_Base.grp" />
            <File_Group path="../../src/FreeBusyQueue/EPTF_CLL_FreeBusyQueue.grp" />
            <File_Group path="../../src/Common/EPTF_CLL_Common.grp" />
        </File_Groups>
    </File_Group>
</Project>
