{
    "ViewmodelEditors": [
        {
            "pos": {
                "top": 3,
                "left": 229
            },
            "visible": false
        },
        {
            "pos": {
                "top": 159,
                "left": 239
            },
            "visible": false
        },
        {
            "pos": {
                "top": 28,
                "left": 230
            },
            "visible": false
        },
        {
            "pos": {
                "top": 53,
                "left": 228
            },
            "visible": false
        },
        {
            "pos": {
                "top": 77,
                "left": 227
            },
            "visible": false
        },
        {
            "pos": {
                "top": 101,
                "left": 228
            },
            "visible": false
        },
        {
            "pos": {
                "top": 124,
                "left": 228
            },
            "visible": false
        }
    ],
    "ViewEditors": [
        {
            "pos": {
                "top": 160,
                "left": 582
            },
            "visible": false
        },
        {
            "pos": {
                "top": 5,
                "left": 485
            },
            "visible": false
        },
        {
            "pos": {
                "top": 81,
                "left": 457
            },
            "visible": false
        },
        {
            "pos": {
                "top": 29,
                "left": 458
            },
            "visible": false
        },
        {
            "pos": {
                "top": 56,
                "left": 456
            },
            "visible": false
        },
        {
            "pos": {
                "top": 128,
                "left": 456
            },
            "visible": false
        },
        {
            "pos": {
                "top": 105,
                "left": 456
            },
            "visible": false
        }
    ],
    "HtmlEditor": {
        "pos": {
            "top": 159,
            "left": 744
        },
        "visible": false
    },
    "RequestEditor": {},
    "Imports": []
}