[
    {
        "getData": {
            "source": "ExecCtrl",
            "element": "TimeElapsed"
        }
    },
    {
        "getData": {
            "source": "ExecCtrl",
            "element": "Start",
            "writableInfo": true
        }
    },
    {
        "getData": {
            "source": "ExecCtrl",
            "element": "Stop",
            "writableInfo": true
        }
    },
    {
        "getData": {
            "source": "ExecCtrl",
            "element": "Terminate"
        }
    },
    {
        "getData": {
            "source": "ExecCtrl",
            "element": "Snapshot"
        }
    },
    {
        "getData": {
            "source": "ExecCtrl",
            "element": "Exit"
        }
    }
]