[
    {
        "class": "CView_Aligner",
        "customData": {
            "flexCalculation": true,
            "css": {
                "margin-bottom": "2px",
                "padding": "4px",
                "border": "1px solid gray"
            },
            "processCss": {
                ".Aligner_Horizontal_Content": {
                    "padding-right": "5px"
                },
                ".BasicButton": {
                    "width": "100%"
                },
                ".BasicButton > BUTTON": {
                    "width": "100%"
                }
            }
        },
        "viewModelIndexes": [
            1
        ],
        "idsCreating": [
            "EPTF_CLL_ExecCtrl_CommonControls_CView_Aligner_0",
            "EPTF_CLL_ExecCtrl_CommonControls_CView_Aligner_1",
            "EPTF_CLL_ExecCtrl_CommonControls_CView_Aligner_2",
            "EPTF_CLL_ExecCtrl_CommonControls_CView_Aligner_3",
            "EPTF_CLL_ExecCtrl_CommonControls_CView_Aligner_4",
            "EPTF_CLL_ExecCtrl_CommonControls_CView_Aligner_5"
        ],
        "parentID": "EPTF_CLL_ExecCtrl_CommonControls"
    },
    {
        "class": "CView_Label",
        "customData": {
            "disabled": true,
            "flex": 1
        },
        "viewModelIndexes": [
            0
        ],
        "idsCreating": [],
        "parentID": "EPTF_CLL_ExecCtrl_CommonControls_CView_Aligner_0"
    },
    {
        "class": "CView_BasicButton",
        "customData": {
            "text": "Terminate Test",
            "img": "WebApplicationFramework/Res/terminate.png",
            "imagePosition": "right",
            "flex": "150px"
        },
        "viewModelIndexes": [
            4
        ],
        "idsCreating": [],
        "parentID": "EPTF_CLL_ExecCtrl_CommonControls_CView_Aligner_3"
    },
    {
        "class": "CView_BasicButton",
        "customData": {
            "text": "Start Test",
            "img": "WebApplicationFramework/Res/starttest.png",
            "imagePosition": "right",
            "flex": "150px"
        },
        "viewModelIndexes": [
            2
        ],
        "idsCreating": [],
        "parentID": "EPTF_CLL_ExecCtrl_CommonControls_CView_Aligner_1"
    },
    {
        "class": "CView_BasicButton",
        "customData": {
            "text": "Stop Test",
            "img": "WebApplicationFramework/Res/stoptest.png",
            "imagePosition": "right",
            "flex": "150px"
        },
        "viewModelIndexes": [
            3
        ],
        "idsCreating": [],
        "parentID": "EPTF_CLL_ExecCtrl_CommonControls_CView_Aligner_2"
    },
    {
        "class": "CView_BasicButton",
        "customData": {
            "text": "Exit",
            "img": "WebApplicationFramework/Res/exit.png",
            "imagePosition": "right",
            "flex": "150px"
        },
        "viewModelIndexes": [
            6
        ],
        "idsCreating": [],
        "parentID": "EPTF_CLL_ExecCtrl_CommonControls_CView_Aligner_5"
    },
    {
        "class": "CView_BasicButton",
        "customData": {
            "text": "Snapshot",
            "img": "WebApplicationFramework/Res/save.png",
            "imagePosition": "right",
            "flex": "150px"
        },
        "viewModelIndexes": [
            5
        ],
        "idsCreating": [],
        "parentID": "EPTF_CLL_ExecCtrl_CommonControls_CView_Aligner_4"
    }
]