<!--  
///////////////////////////////////////////////////////////////////////////////
//                                                                           //
// Copyright (c) 2000-2023 Ericsson Telecom AB                               //
//                                                                           //
// All rights reserved. This program and the accompanying materials          //
// are made available under the terms of the Eclipse Public License v2.0     //
// which accompanies this distribution, and is available at                  //
// https://www.eclipse.org/org/documents/epl-2.0/EPL-2.0.html                                 //
//                                                                           //
///////////////////////////////////////////////////////////////////////////////

-->
<!DOCTYPE TITAN_GUI_project_file>
<Project TITAN_version="1.8.pl4" >
    <General>
        <Project_Name>TestResultGen_Demo</Project_Name>
        <Executable_Path>../build/TestResultGen_Demo</Executable_Path>
        <Working_Dir>../build</Working_Dir>
        <Build_Host>alpha</Build_Host>
        <Execution_Mode>Parallel</Execution_Mode>
        <Code_Splitting_Mode>None</Code_Splitting_Mode>
        <ScriptFile_AfterMake>../run_xsd2ttcn.sh</ScriptFile_AfterMake>
        <Log_Format>yes</Log_Format>
        <Update_Symlinks>yes</Update_Symlinks>
        <Create_Absolute_Symlinks>no</Create_Absolute_Symlinks>
        <Update_Makefile>yes</Update_Makefile>
        <Localhost_Execute>yes</Localhost_Execute>
        <Execute_Command>rsh %host &quot;cd %project_working_dir ; &quot;%executable&quot; %localhost %mctr_port&quot;</Execute_Command>
        <Execute_Hosts>alfa, beta, gamma</Execute_Hosts>
        <UnUsed_List></UnUsed_List>
    </General>
    <File_Group name="MainFileGroup" >
        <File_Groups>
            <File_Group path="TestResultGen_Demo.grp" />
            <File_Group path="../TestResultGen_Dep.grp" />
        </File_Groups>
    </File_Group>
</Project>
