[
    {
        "getData": {
            "source": "DataSource",
            "element": "sizeOf",
            "params": [
                {
                    "paramName": "Source",
                    "paramValue": "ExecCtrl"
                },
                {
                    "paramName": "Element",
                    "paramValue": "EntityGroups"
                }
            ]
        }
    },
    {
        "getData": {
            "source": "ExecCtrl",
            "element": "EntityGroups",
            "children": [
                {
                    "getData": {
                        "source": "ExecCtrl",
                        "element": "EGrpType",
                        "params": [
                            {
                                "paramName": "EntityGroup",
                                "paramValue": "%Parent0%"
                            }
                        ]
                    }
                },
                {
                    "getData": {
                        "source": "ExecCtrl",
                        "element": "EGrpSize",
                        "params": [
                            {
                                "paramName": "EntityGroup",
                                "paramValue": "%Parent0%"
                            }
                        ]
                    }
                }
            ]
        }
    },
    {
        "getData": {
            "source": "ExecCtrl",
            "element": "EntityGroups",
            "children": [
                {
                    "getData": {
                        "source": "DataSource",
                        "element": "sizeOf",
                        "params": [
                            {
                                "paramName": "Source",
                                "paramValue": "ExecCtrl"
                            },
                            {
                                "paramName": "Element",
                                "paramValue": "Scenarios"
                            },
                            {
                                "paramName": "ParamName",
                                "paramValue": "EntityGroup"
                            },
                            {
                                "paramName": "ParamValue",
                                "paramValue": "%Parent0%"
                            }
                        ]
                    }
                },
                {
                    "getData": {
                        "source": "ExecCtrl",
                        "element": "Scenarios",
                        "params": [
                            {
                                "paramName": "EntityGroup",
                                "paramValue": "%Parent0%"
                            }
                        ],
                        "children": [
                            {
                                "getData": {
                                    "source": "ExecCtrl",
                                    "element": "ScStatus",
                                    "params": [
                                        {
                                            "paramName": "EntityGroup",
                                            "paramValue": "%Parent0%"
                                        },
                                        {
                                            "paramName": "Scenario",
                                            "paramValue": "%Parent1%"
                                        }
                                    ]
                                }
                            },
                            {
                                "getData": {
                                    "source": "ExecCtrl",
                                    "element": "ScIsWeighted",
                                    "params": [
                                        {
                                            "paramName": "EntityGroup",
                                            "paramValue": "%Parent0%"
                                        },
                                        {
                                            "paramName": "Scenario",
                                            "paramValue": "%Parent1%"
                                        }
                                    ]
                                }
                            }
                        ]
                    }
                }
            ],
            "selection": [
                0
            ]
        }
    }
]