[
    {
        "class": "CView_ElementTableForLargeData",
        "customData": {
            "class": "TableGray"
        },
        "viewModelIndexes": [
            0
        ],
        "idsCreating": [],
        "parentID": "alma_CView_Aligner_0"
    },
    {
        "class": "CView_ElementTableForLargeData",
        "customData": {},
        "viewModelIndexes": [
            1
        ],
        "idsCreating": [],
        "parentID": "alma_CView_Aligner_1"
    },
    {
        "class": "CView_Aligner",
        "customData": {
            "css": {
                "height": "400px"
            },
            "flexCalculation": true
        },
        "viewModelIndexes": [],
        "idsCreating": [
            "alma_CView_Aligner_0",
            "alma_CView_Aligner_1"
        ],
        "parentID": "alma"
    }
]