{
    "ViewmodelEditors": [
        {
            "pos": {
                "top": 65,
                "left": 410
            },
            "visible": false
        },
        {
            "pos": {
                "top": 19,
                "left": 231
            },
            "visible": false
        }
    ],
    "ViewEditors": [
        {
            "pos": {
                "top": 42,
                "left": 661
            },
            "visible": false
        },
        {
            "pos": {
                "top": 82,
                "left": 859
            },
            "visible": false
        }
    ],
    "HtmlEditor": {
        "pos": {
            "top": 85,
            "left": 1034
        },
        "visible": false
    },
    "RequestEditor": {},
    "Imports": [
        {
            "pos": {
                "top": 143,
                "left": 666
            },
            "visible": false
        },
        {
            "pos": {
                "top": 121,
                "left": 719
            },
            "visible": false
        },
        {
            "pos": {
                "top": 20,
                "left": 756
            },
            "visible": false
        }
    ]
}