[
    {
        "getData": {
            "source": "DataSource",
            "element": "PTCs",
            "params": [
                {
                    "paramName": "Source",
                    "paramValue": "LGenBase"
                }
            ]
        }
    },
    {
        "getData": {
            "source": "DataSource",
            "element": "PTCs",
            "params": [
                {
                    "paramName": "Source",
                    "paramValue": "LGenBase"
                }
            ],
            "selection": [
                0
            ],
            "children": [
                {
                    "getData": {
                        "source": "DataSource",
                        "element": "sizeOf",
                        "params": [
                            {
                                "paramName": "Source",
                                "paramValue": "LGenBase"
                            },
                            {
                                "paramName": "Element",
                                "paramValue": "TrafficCasesOfScenarios"
                            },
                            {
                                "paramName": "PTCName",
                                "paramValue": "%Parent0%"
                            }
                        ]
                    }
                },
                {
                    "getData": {
                        "source": "LGenBase",
                        "element": "TrafficCasesOfScenarios",
                        "children": [
                            {
                                "getData": {
                                    "source": "LGenBase",
                                    "element": "EntityGroupOfTrafficCasesOfScenarios",
                                    "params": [
                                        {
                                            "paramName": "TrafficCaseOfScenarios",
                                            "paramValue": "%Parent1%"
                                        }
                                    ],
                                    "children": [
                                        {
                                            "getData": {
                                                "source": "LGenBase",
                                                "element": "ScenarioOfTrafficCasesOfScenarios",
                                                "params": [
                                                    {
                                                        "paramName": "TrafficCaseOfScenarios",
                                                        "paramValue": "%Parent1%"
                                                    }
                                                ],
                                                "children": [
                                                    {
                                                        "getData": {
                                                            "source": "LGenBase",
                                                            "element": "ScEnabled",
                                                            "params": [
                                                                {
                                                                    "paramName": "EntityGroup",
                                                                    "paramValue": "%Parent2%"
                                                                },
                                                                {
                                                                    "paramName": "Scenario",
                                                                    "paramValue": "%Parent3%"
                                                                }
                                                            ],
                                                            "ptcname": "%Parent0%"
                                                        }
                                                    },
                                                    {
                                                        "getData": {
                                                            "source": "LGenBase",
                                                            "element": "ScStateName",
                                                            "params": [
                                                                {
                                                                    "paramName": "EntityGroup",
                                                                    "paramValue": "%Parent2%"
                                                                },
                                                                {
                                                                    "paramName": "Scenario",
                                                                    "paramValue": "%Parent3%"
                                                                }
                                                            ],
                                                            "ptcname": "%Parent0%"
                                                        }
                                                    },
                                                    {
                                                        "getData": {
                                                            "source": "LGenBase",
                                                            "element": "IsWeightedSc",
                                                            "params": [
                                                                {
                                                                    "paramName": "EntityGroup",
                                                                    "paramValue": "%Parent2%"
                                                                },
                                                                {
                                                                    "paramName": "Scenario",
                                                                    "paramValue": "%Parent3%"
                                                                }
                                                            ],
                                                            "children": [
                                                                {
                                                                    "getData": {
                                                                        "source": "LGenBase",
                                                                        "element": "ScCpsToReach",
                                                                        "params": [
                                                                            {
                                                                                "paramName": "EntityGroup",
                                                                                "paramValue": "%Parent2%"
                                                                            },
                                                                            {
                                                                                "paramName": "Scenario",
                                                                                "paramValue": "%Parent3%"
                                                                            }
                                                                        ],
                                                                        "ptcname": "%Parent0%",
                                                                        "filter": {
                                                                            "dataValue": "%Parent4%"
                                                                        }
                                                                    }
                                                                },
                                                                {
                                                                    "getData": {
                                                                        "source": "LGenBase",
                                                                        "element": "ScLockCPS",
                                                                        "params": [
                                                                            {
                                                                                "paramName": "EntityGroup",
                                                                                "paramValue": "%Parent2%"
                                                                            },
                                                                            {
                                                                                "paramName": "Scenario",
                                                                                "paramValue": "%Parent3%"
                                                                            }
                                                                        ],
                                                                        "ptcname": "%Parent0%",
                                                                        "filter": {
                                                                            "dataValue": "%Parent4%"
                                                                        }
                                                                    }
                                                                }
                                                            ],
                                                            "ptcname": "%Parent0%"
                                                        }
                                                    }
                                                ],
                                                "ptcname": "%Parent0%"
                                            }
                                        },
                                        {
                                            "getData": {
                                                "source": "LGenBase",
                                                "element": "ScenarioOfTrafficCasesOfScenarios",
                                                "params": [
                                                    {
                                                        "paramName": "TrafficCaseOfScenarios",
                                                        "paramValue": "%Parent1%"
                                                    }
                                                ],
                                                "children": [
                                                    {
                                                        "getData": {
                                                            "source": "LGenBase",
                                                            "element": "ScStartButton",
                                                            "params": [
                                                                {
                                                                    "paramName": "EntityGroup",
                                                                    "paramValue": "%Parent2%"
                                                                },
                                                                {
                                                                    "paramName": "Scenario",
                                                                    "paramValue": "%Parent3%"
                                                                }
                                                            ],
                                                            "ptcname": "%Parent0%"
                                                        }
                                                    },
                                                    {
                                                        "getData": {
                                                            "source": "LGenBase",
                                                            "element": "ScStopButton",
                                                            "params": [
                                                                {
                                                                    "paramName": "EntityGroup",
                                                                    "paramValue": "%Parent2%"
                                                                },
                                                                {
                                                                    "paramName": "Scenario",
                                                                    "paramValue": "%Parent3%"
                                                                }
                                                            ],
                                                            "ptcname": "%Parent0%"
                                                        }
                                                    },
                                                    {
                                                        "getData": {
                                                            "source": "LGenBase",
                                                            "element": "ScPauseButton",
                                                            "params": [
                                                                {
                                                                    "paramName": "EntityGroup",
                                                                    "paramValue": "%Parent2%"
                                                                },
                                                                {
                                                                    "paramName": "Scenario",
                                                                    "paramValue": "%Parent3%"
                                                                }
                                                            ],
                                                            "ptcname": "%Parent0%"
                                                        }
                                                    },
                                                    {
                                                        "getData": {
                                                            "source": "LGenBase",
                                                            "element": "ScAbortButton",
                                                            "params": [
                                                                {
                                                                    "paramName": "EntityGroup",
                                                                    "paramValue": "%Parent2%"
                                                                },
                                                                {
                                                                    "paramName": "Scenario",
                                                                    "paramValue": "%Parent3%"
                                                                }
                                                            ],
                                                            "ptcname": "%Parent0%"
                                                        }
                                                    },
                                                    {
                                                        "getData": {
                                                            "source": "LGenBase",
                                                            "element": "ScRestoreButton",
                                                            "params": [
                                                                {
                                                                    "paramName": "EntityGroup",
                                                                    "paramValue": "%Parent2%"
                                                                },
                                                                {
                                                                    "paramName": "Scenario",
                                                                    "paramValue": "%Parent3%"
                                                                }
                                                            ],
                                                            "ptcname": "%Parent0%"
                                                        }
                                                    },
                                                    {
                                                        "getData": {
                                                            "source": "LGenBase",
                                                            "element": "ScSingleShotBtn",
                                                            "params": [
                                                                {
                                                                    "paramName": "EntityGroup",
                                                                    "paramValue": "%Parent2%"
                                                                },
                                                                {
                                                                    "paramName": "Scenario",
                                                                    "paramValue": "%Parent3%"
                                                                }
                                                            ],
                                                            "ptcname": "%Parent0%"
                                                        }
                                                    }
                                                ],
                                                "ptcname": "%Parent0%"
                                            }
                                        },
                                        {
                                            "getData": {
                                                "source": "LGenBase",
                                                "element": "ScenarioOfTrafficCasesOfScenarios",
                                                "params": [
                                                    {
                                                        "paramName": "TrafficCaseOfScenarios",
                                                        "paramValue": "%Parent1%"
                                                    }
                                                ],
                                                "children": [
                                                    {
                                                        "getData": {
                                                            "source": "DataSource",
                                                            "element": "sizeOf",
                                                            "params": [
                                                                {
                                                                    "paramName": "Source",
                                                                    "paramValue": "LGenBase"
                                                                },
                                                                {
                                                                    "paramName": "Element",
                                                                    "paramValue": "TrafficCases"
                                                                },
                                                                {
                                                                    "paramName": "ParamName",
                                                                    "paramValue": "EntityGroup"
                                                                },
                                                                {
                                                                    "paramName": "ParamValue",
                                                                    "paramValue": "%Parent2%"
                                                                },
                                                                {
                                                                    "paramName": "ParamName",
                                                                    "paramValue": "Scenario"
                                                                },
                                                                {
                                                                    "paramName": "ParamValue",
                                                                    "paramValue": "%Parent3%"
                                                                },
                                                                {
                                                                    "paramName": "PTCName",
                                                                    "paramValue": "%Parent0%"
                                                                }
                                                            ]
                                                        }
                                                    },
                                                    {
                                                        "getData": {
                                                            "source": "LGenBase",
                                                            "element": "TrafficCaseOfTrafficCasesOfScenarios",
                                                            "params": [
                                                                {
                                                                    "paramName": "TrafficCaseOfScenarios",
                                                                    "paramValue": "%Parent1%"
                                                                }
                                                            ],
                                                            "children": [
                                                                {
                                                                    "getData": {
                                                                        "source": "LGenBase",
                                                                        "element": "TcEnabled",
                                                                        "params": [
                                                                            {
                                                                                "paramName": "EntityGroup",
                                                                                "paramValue": "%Parent2%"
                                                                            },
                                                                            {
                                                                                "paramName": "Scenario",
                                                                                "paramValue": "%Parent3%"
                                                                            },
                                                                            {
                                                                                "paramName": "TrafficCase",
                                                                                "paramValue": "%Parent4%"
                                                                            }
                                                                        ],
                                                                        "ptcname": "%Parent0%"
                                                                    }
                                                                },
                                                                {
                                                                    "getData": {
                                                                        "source": "LGenBase",
                                                                        "element": "TcStateName",
                                                                        "params": [
                                                                            {
                                                                                "paramName": "EntityGroup",
                                                                                "paramValue": "%Parent2%"
                                                                            },
                                                                            {
                                                                                "paramName": "Scenario",
                                                                                "paramValue": "%Parent3%"
                                                                            },
                                                                            {
                                                                                "paramName": "TrafficCase",
                                                                                "paramValue": "%Parent4%"
                                                                            }
                                                                        ],
                                                                        "ptcname": "%Parent0%"
                                                                    }
                                                                },
                                                                {
                                                                    "getData": {
                                                                        "source": "LGenBase",
                                                                        "element": "TcUserData",
                                                                        "params": [
                                                                            {
                                                                                "paramName": "EntityGroup",
                                                                                "paramValue": "%Parent2%"
                                                                            },
                                                                            {
                                                                                "paramName": "Scenario",
                                                                                "paramValue": "%Parent3%"
                                                                            },
                                                                            {
                                                                                "paramName": "TrafficCase",
                                                                                "paramValue": "%Parent4%"
                                                                            }
                                                                        ],
                                                                        "ptcname": "%Parent0%"
                                                                    }
                                                                },
                                                                {
                                                                    "getData": {
                                                                        "source": "LGenBase",
                                                                        "element": "TcStartButton",
                                                                        "params": [
                                                                            {
                                                                                "paramName": "EntityGroup",
                                                                                "paramValue": "%Parent2%"
                                                                            },
                                                                            {
                                                                                "paramName": "Scenario",
                                                                                "paramValue": "%Parent3%"
                                                                            },
                                                                            {
                                                                                "paramName": "TrafficCase",
                                                                                "paramValue": "%Parent4%"
                                                                            }
                                                                        ],
                                                                        "ptcname": "%Parent0%"
                                                                    }
                                                                },
                                                                {
                                                                    "getData": {
                                                                        "source": "LGenBase",
                                                                        "element": "TcStopButton",
                                                                        "params": [
                                                                            {
                                                                                "paramName": "EntityGroup",
                                                                                "paramValue": "%Parent2%"
                                                                            },
                                                                            {
                                                                                "paramName": "Scenario",
                                                                                "paramValue": "%Parent3%"
                                                                            },
                                                                            {
                                                                                "paramName": "TrafficCase",
                                                                                "paramValue": "%Parent4%"
                                                                            }
                                                                        ],
                                                                        "ptcname": "%Parent0%"
                                                                    }
                                                                },
                                                                {
                                                                    "getData": {
                                                                        "source": "LGenBase",
                                                                        "element": "TcPauseButton",
                                                                        "params": [
                                                                            {
                                                                                "paramName": "EntityGroup",
                                                                                "paramValue": "%Parent2%"
                                                                            },
                                                                            {
                                                                                "paramName": "Scenario",
                                                                                "paramValue": "%Parent3%"
                                                                            },
                                                                            {
                                                                                "paramName": "TrafficCase",
                                                                                "paramValue": "%Parent4%"
                                                                            }
                                                                        ],
                                                                        "ptcname": "%Parent0%"
                                                                    }
                                                                },
                                                                {
                                                                    "getData": {
                                                                        "source": "LGenBase",
                                                                        "element": "TcAbortButton",
                                                                        "params": [
                                                                            {
                                                                                "paramName": "EntityGroup",
                                                                                "paramValue": "%Parent2%"
                                                                            },
                                                                            {
                                                                                "paramName": "Scenario",
                                                                                "paramValue": "%Parent3%"
                                                                            },
                                                                            {
                                                                                "paramName": "TrafficCase",
                                                                                "paramValue": "%Parent4%"
                                                                            }
                                                                        ],
                                                                        "ptcname": "%Parent0%"
                                                                    }
                                                                },
                                                                {
                                                                    "getData": {
                                                                        "source": "LGenBase",
                                                                        "element": "TcSingleShotBtn",
                                                                        "params": [
                                                                            {
                                                                                "paramName": "EntityGroup",
                                                                                "paramValue": "%Parent2%"
                                                                            },
                                                                            {
                                                                                "paramName": "Scenario",
                                                                                "paramValue": "%Parent3%"
                                                                            },
                                                                            {
                                                                                "paramName": "TrafficCase",
                                                                                "paramValue": "%Parent4%"
                                                                            }
                                                                        ],
                                                                        "ptcname": "%Parent0%"
                                                                    }
                                                                },
                                                                {
                                                                    "getData": {
                                                                        "source": "LGenBase",
                                                                        "element": "TrafficType",
                                                                        "params": [
                                                                            {
                                                                                "paramName": "EntityGroup",
                                                                                "paramValue": "%Parent2%"
                                                                            },
                                                                            {
                                                                                "paramName": "Scenario",
                                                                                "paramValue": "%Parent3%"
                                                                            },
                                                                            {
                                                                                "paramName": "TrafficCase",
                                                                                "paramValue": "%Parent4%"
                                                                            }
                                                                        ],
                                                                        "ptcname": "%Parent0%"
                                                                    }
                                                                },
                                                                {
                                                                    "getData": {
                                                                        "source": "LGenBase",
                                                                        "element": "IsWeightedSc",
                                                                        "params": [
                                                                            {
                                                                                "paramName": "EntityGroup",
                                                                                "paramValue": "%Parent2%"
                                                                            },
                                                                            {
                                                                                "paramName": "Scenario",
                                                                                "paramValue": "%Parent3%"
                                                                            }
                                                                        ],
                                                                        "children": [
                                                                            {
                                                                                "getData": {
                                                                                    "source": "LGenBase",
                                                                                    "element": "Weight",
                                                                                    "params": [
                                                                                        {
                                                                                            "paramName": "EntityGroup",
                                                                                            "paramValue": "%Parent2%"
                                                                                        },
                                                                                        {
                                                                                            "paramName": "Scenario",
                                                                                            "paramValue": "%Parent3%"
                                                                                        },
                                                                                        {
                                                                                            "paramName": "TrafficCase",
                                                                                            "paramValue": "%Parent4%"
                                                                                        }
                                                                                    ],
                                                                                    "ptcname": "%Parent0%",
                                                                                    "filter": {
                                                                                        "dataValue": "%Parent5%"
                                                                                    }
                                                                                }
                                                                            },
                                                                            {
                                                                                "getData": {
                                                                                    "source": "LGenBase",
                                                                                    "element": "CpsToReach",
                                                                                    "params": [
                                                                                        {
                                                                                            "paramName": "EntityGroup",
                                                                                            "paramValue": "%Parent2%"
                                                                                        },
                                                                                        {
                                                                                            "paramName": "Scenario",
                                                                                            "paramValue": "%Parent3%"
                                                                                        },
                                                                                        {
                                                                                            "paramName": "TrafficCase",
                                                                                            "paramValue": "%Parent4%"
                                                                                        }
                                                                                    ],
                                                                                    "ptcname": "%Parent0%",
                                                                                    "filter": {
                                                                                        "request": {
                                                                                            "source": "DataSource",
                                                                                            "element": "not",
                                                                                            "params": [
                                                                                                {
                                                                                                    "paramName": "Par1",
                                                                                                    "paramValue": {
                                                                                                        "dataValue": "%Parent5%"
                                                                                                    }
                                                                                                }
                                                                                            ]
                                                                                        }
                                                                                    }
                                                                                }
                                                                            }
                                                                        ],
                                                                        "ptcname": "%Parent0%"
                                                                    }
                                                                },
                                                                {
                                                                    "getData": {
                                                                        "source": "LGenBase",
                                                                        "element": "LastCps",
                                                                        "params": [
                                                                            {
                                                                                "paramName": "EntityGroup",
                                                                                "paramValue": "%Parent2%"
                                                                            },
                                                                            {
                                                                                "paramName": "Scenario",
                                                                                "paramValue": "%Parent3%"
                                                                            },
                                                                            {
                                                                                "paramName": "TrafficCase",
                                                                                "paramValue": "%Parent4%"
                                                                            }
                                                                        ],
                                                                        "ptcname": "%Parent0%"
                                                                    }
                                                                },
                                                                {
                                                                    "getData": {
                                                                        "source": "LGenBase",
                                                                        "element": "NrOfRunningEntities",
                                                                        "params": [
                                                                            {
                                                                                "paramName": "EntityGroup",
                                                                                "paramValue": "%Parent2%"
                                                                            },
                                                                            {
                                                                                "paramName": "Scenario",
                                                                                "paramValue": "%Parent3%"
                                                                            },
                                                                            {
                                                                                "paramName": "TrafficCase",
                                                                                "paramValue": "%Parent4%"
                                                                            }
                                                                        ],
                                                                        "ptcname": "%Parent0%"
                                                                    }
                                                                },
                                                                {
                                                                    "getData": {
                                                                        "source": "LGenBase",
                                                                        "element": "NrOfAvailableEntities",
                                                                        "params": [
                                                                            {
                                                                                "paramName": "EntityGroup",
                                                                                "paramValue": "%Parent2%"
                                                                            },
                                                                            {
                                                                                "paramName": "Scenario",
                                                                                "paramValue": "%Parent3%"
                                                                            },
                                                                            {
                                                                                "paramName": "TrafficCase",
                                                                                "paramValue": "%Parent4%"
                                                                            }
                                                                        ],
                                                                        "ptcname": "%Parent0%"
                                                                    }
                                                                },
                                                                {
                                                                    "getData": {
                                                                        "source": "LGenBase",
                                                                        "element": "NrOfNotFinishedEntities",
                                                                        "params": [
                                                                            {
                                                                                "paramName": "EntityGroup",
                                                                                "paramValue": "%Parent2%"
                                                                            },
                                                                            {
                                                                                "paramName": "Scenario",
                                                                                "paramValue": "%Parent3%"
                                                                            },
                                                                            {
                                                                                "paramName": "TrafficCase",
                                                                                "paramValue": "%Parent4%"
                                                                            }
                                                                        ],
                                                                        "ptcname": "%Parent0%"
                                                                    }
                                                                },
                                                                {
                                                                    "getData": {
                                                                        "source": "LGenBase",
                                                                        "element": "NrOfStarts",
                                                                        "params": [
                                                                            {
                                                                                "paramName": "EntityGroup",
                                                                                "paramValue": "%Parent2%"
                                                                            },
                                                                            {
                                                                                "paramName": "Scenario",
                                                                                "paramValue": "%Parent3%"
                                                                            },
                                                                            {
                                                                                "paramName": "TrafficCase",
                                                                                "paramValue": "%Parent4%"
                                                                            }
                                                                        ],
                                                                        "ptcname": "%Parent0%"
                                                                    }
                                                                },
                                                                {
                                                                    "getData": {
                                                                        "source": "LGenBase",
                                                                        "element": "NrOfSuccesses",
                                                                        "params": [
                                                                            {
                                                                                "paramName": "EntityGroup",
                                                                                "paramValue": "%Parent2%"
                                                                            },
                                                                            {
                                                                                "paramName": "Scenario",
                                                                                "paramValue": "%Parent3%"
                                                                            },
                                                                            {
                                                                                "paramName": "TrafficCase",
                                                                                "paramValue": "%Parent4%"
                                                                            }
                                                                        ],
                                                                        "ptcname": "%Parent0%"
                                                                    }
                                                                },
                                                                {
                                                                    "getData": {
                                                                        "source": "LGenBase",
                                                                        "element": "NrOfFails",
                                                                        "params": [
                                                                            {
                                                                                "paramName": "EntityGroup",
                                                                                "paramValue": "%Parent2%"
                                                                            },
                                                                            {
                                                                                "paramName": "Scenario",
                                                                                "paramValue": "%Parent3%"
                                                                            },
                                                                            {
                                                                                "paramName": "TrafficCase",
                                                                                "paramValue": "%Parent4%"
                                                                            }
                                                                        ],
                                                                        "ptcname": "%Parent0%"
                                                                    }
                                                                },
                                                                {
                                                                    "getData": {
                                                                        "source": "LGenBase",
                                                                        "element": "NrOfErrors",
                                                                        "params": [
                                                                            {
                                                                                "paramName": "EntityGroup",
                                                                                "paramValue": "%Parent2%"
                                                                            },
                                                                            {
                                                                                "paramName": "Scenario",
                                                                                "paramValue": "%Parent3%"
                                                                            },
                                                                            {
                                                                                "paramName": "TrafficCase",
                                                                                "paramValue": "%Parent4%"
                                                                            }
                                                                        ],
                                                                        "ptcname": "%Parent0%"
                                                                    }
                                                                },
                                                                {
                                                                    "getData": {
                                                                        "source": "LGenBase",
                                                                        "element": "NrOfTimeouts",
                                                                        "params": [
                                                                            {
                                                                                "paramName": "EntityGroup",
                                                                                "paramValue": "%Parent2%"
                                                                            },
                                                                            {
                                                                                "paramName": "Scenario",
                                                                                "paramValue": "%Parent3%"
                                                                            },
                                                                            {
                                                                                "paramName": "TrafficCase",
                                                                                "paramValue": "%Parent4%"
                                                                            }
                                                                        ],
                                                                        "ptcname": "%Parent0%"
                                                                    }
                                                                },
                                                                {
                                                                    "getData": {
                                                                        "source": "LGenBase",
                                                                        "element": "MaxRunningEntities",
                                                                        "params": [
                                                                            {
                                                                                "paramName": "EntityGroup",
                                                                                "paramValue": "%Parent2%"
                                                                            },
                                                                            {
                                                                                "paramName": "Scenario",
                                                                                "paramValue": "%Parent3%"
                                                                            },
                                                                            {
                                                                                "paramName": "TrafficCase",
                                                                                "paramValue": "%Parent4%"
                                                                            }
                                                                        ],
                                                                        "ptcname": "%Parent0%"
                                                                    }
                                                                },
                                                                {
                                                                    "getData": {
                                                                        "source": "LGenBase",
                                                                        "element": "MinAvailableEntities",
                                                                        "params": [
                                                                            {
                                                                                "paramName": "EntityGroup",
                                                                                "paramValue": "%Parent2%"
                                                                            },
                                                                            {
                                                                                "paramName": "Scenario",
                                                                                "paramValue": "%Parent3%"
                                                                            },
                                                                            {
                                                                                "paramName": "TrafficCase",
                                                                                "paramValue": "%Parent4%"
                                                                            }
                                                                        ],
                                                                        "ptcname": "%Parent0%"
                                                                    }
                                                                },
                                                                {
                                                                    "getData": {
                                                                        "source": "LGenBase",
                                                                        "element": "MaxBusyEntities",
                                                                        "params": [
                                                                            {
                                                                                "paramName": "EntityGroup",
                                                                                "paramValue": "%Parent2%"
                                                                            },
                                                                            {
                                                                                "paramName": "Scenario",
                                                                                "paramValue": "%Parent3%"
                                                                            },
                                                                            {
                                                                                "paramName": "TrafficCase",
                                                                                "paramValue": "%Parent4%"
                                                                            }
                                                                        ],
                                                                        "ptcname": "%Parent0%"
                                                                    }
                                                                },
                                                                {
                                                                    "getData": {
                                                                        "source": "LGenBase",
                                                                        "element": "ReceivedAnswers",
                                                                        "params": [
                                                                            {
                                                                                "paramName": "EntityGroup",
                                                                                "paramValue": "%Parent2%"
                                                                            },
                                                                            {
                                                                                "paramName": "Scenario",
                                                                                "paramValue": "%Parent3%"
                                                                            },
                                                                            {
                                                                                "paramName": "TrafficCase",
                                                                                "paramValue": "%Parent4%"
                                                                            }
                                                                        ],
                                                                        "ptcname": "%Parent0%"
                                                                    }
                                                                },
                                                                {
                                                                    "getData": {
                                                                        "source": "LGenBase",
                                                                        "element": "RangeLoops",
                                                                        "params": [
                                                                            {
                                                                                "paramName": "EntityGroup",
                                                                                "paramValue": "%Parent2%"
                                                                            },
                                                                            {
                                                                                "paramName": "Scenario",
                                                                                "paramValue": "%Parent3%"
                                                                            },
                                                                            {
                                                                                "paramName": "TrafficCase",
                                                                                "paramValue": "%Parent4%"
                                                                            }
                                                                        ],
                                                                        "ptcname": "%Parent0%"
                                                                    }
                                                                }
                                                            ],
                                                            "ptcname": "%Parent0%"
                                                        }
                                                    }
                                                ],
                                                "ptcname": "%Parent0%"
                                            }
                                        }
                                    ],
                                    "ptcname": "%Parent0%"
                                }
                            }
                        ],
                        "rangeFilter": {
                            "offset": 0,
                            "count": 8
                        },
                        "ptcname": "%Parent0%"
                    }
                }
            ]
        }
    }
]