{
    "ViewmodelEditors": [
        {
            "pos": {
                "top": 27,
                "left": 271
            },
            "visible": false
        },
        {
            "pos": {
                "top": 51,
                "left": 271
            },
            "visible": false
        },
        {
            "pos": {
                "top": 3,
                "left": 271
            },
            "visible": false
        }
    ],
    "ViewEditors": [
        {
            "pos": {
                "top": 51,
                "left": 494
            },
            "visible": false
        },
        {
            "pos": {
                "top": 3,
                "left": 604
            },
            "visible": false
        },
        {
            "pos": {
                "top": 73,
                "left": 533
            },
            "visible": false
        }
    ],
    "Imports": [],
    "HtmlEditor": {
        "pos": {
            "top": 3,
            "left": 773
        },
        "visible": false
    },
    "RequestEditor": {}
}