[
    {
        "getData": {
            "source": "ExecCtrl",
            "element": "EntityGroups",
            "children": [
                {
                    "getData": {
                        "source": "ExecCtrl",
                        "element": "EGrpType",
                        "params": [
                            {
                                "paramName": "EntityGroup",
                                "paramValue": "%Parent0%"
                            }
                        ]
                    }
                },
                {
                    "getData": {
                        "source": "ExecCtrl",
                        "element": "EGrpSize",
                        "params": [
                            {
                                "paramName": "EntityGroup",
                                "paramValue": "%Parent0%"
                            }
                        ]
                    }
                },
                {
                    "getData": {
                        "source": "ExecCtrl",
                        "element": "Exit"
                    }
                }
            ]
        }
    },
    {
        "getData": {
            "source": "ExecCtrl",
            "element": "EntityGroups",
            "children": [
                {
                    "getData": {
                        "source": "ExecCtrl",
                        "element": "Scenarios",
                        "params": [
                            {
                                "paramName": "EntityGroup",
                                "paramValue": "%Parent0%"
                            }
                        ],
                        "children": [
                            {
                                "getData": {
                                    "source": "ExecCtrl",
                                    "element": "ScIsWeighted",
                                    "params": [
                                        {
                                            "paramName": "EntityGroup",
                                            "paramValue": "%Parent0%"
                                        },
                                        {
                                            "paramName": "Scenario",
                                            "paramValue": "%Parent1%"
                                        }
                                    ]
                                }
                            },
                            {
                                "getData": {
                                    "source": "ExecCtrl",
                                    "element": "ScStart",
                                    "params": [
                                        {
                                            "paramName": "EntityGroup",
                                            "paramValue": "%Parent0%"
                                        },
                                        {
                                            "paramName": "Scenario",
                                            "paramValue": "%Parent1%"
                                        }
                                    ]
                                }
                            },
                            {
                                "getData": {
                                    "source": "ExecCtrl",
                                    "element": "ScStop",
                                    "params": [
                                        {
                                            "paramName": "EntityGroup",
                                            "paramValue": "%Parent0%"
                                        },
                                        {
                                            "paramName": "Scenario",
                                            "paramValue": "%Parent1%"
                                        }
                                    ]
                                }
                            },
                            {
                                "getData": {
                                    "source": "ExecCtrl",
                                    "element": "ScStatus",
                                    "params": [
                                        {
                                            "paramName": "EntityGroup",
                                            "paramValue": "%Parent0%"
                                        },
                                        {
                                            "paramName": "Scenario",
                                            "paramValue": "%Parent1%"
                                        }
                                    ]
                                }
                            }
                        ]
                    }
                },
                {
                    "getData": {
                        "source": "ExecCtrl",
                        "element": "Scenarios",
                        "params": [
                            {
                                "paramName": "EntityGroup",
                                "paramValue": "%Parent0%"
                            }
                        ],
                        "children": [
                            {
                                "getData": {
                                    "source": "ExecCtrl",
                                    "element": "TrafficCases",
                                    "params": [
                                        {
                                            "paramName": "EntityGroup",
                                            "paramValue": "%Parent0%"
                                        },
                                        {
                                            "paramName": "Scenario",
                                            "paramValue": "%Parent1%"
                                        }
                                    ],
                                    "children": [
                                        {
                                            "getData": {
                                                "source": "ExecCtrl",
                                                "element": "TcStart",
                                                "params": [
                                                    {
                                                        "paramName": "EntityGroup",
                                                        "paramValue": "%Parent0%"
                                                    },
                                                    {
                                                        "paramName": "Scenario",
                                                        "paramValue": "%Parent1%"
                                                    },
                                                    {
                                                        "paramName": "TrafficCase",
                                                        "paramValue": "%Parent2%"
                                                    }
                                                ]
                                            }
                                        },
                                        {
                                            "getData": {
                                                "source": "ExecCtrl",
                                                "element": "TcStop",
                                                "params": [
                                                    {
                                                        "paramName": "EntityGroup",
                                                        "paramValue": "%Parent0%"
                                                    },
                                                    {
                                                        "paramName": "Scenario",
                                                        "paramValue": "%Parent1%"
                                                    },
                                                    {
                                                        "paramName": "TrafficCase",
                                                        "paramValue": "%Parent2%"
                                                    }
                                                ]
                                            }
                                        }
                                    ]
                                }
                            },
                            {
                                "getData": {
                                    "source": "ExecCtrl",
                                    "element": "TrafficCases",
                                    "params": [
                                        {
                                            "paramName": "EntityGroup",
                                            "paramValue": "%Parent0%"
                                        },
                                        {
                                            "paramName": "Scenario",
                                            "paramValue": "%Parent1%"
                                        }
                                    ],
                                    "selection": [
                                        0
                                    ]
                                }
                            }
                        ],
                        "selection": [
                            0
                        ]
                    }
                }
            ],
            "selection": [
                0
            ]
        }
    }
]