[
    {
        "getData": {
            "source": "ExecCtrl",
            "element": "PhaseLists"
        }
    },
    {
        "getData": {
            "source": "ExecCtrl",
            "element": "PhaseLists",
            "children": [
                {
                    "getData": {
                        "source": "ExecCtrl",
                        "element": "Phases",
                        "params": [
                            {
                                "paramName": "PhaseList",
                                "paramValue": "%Parent0%"
                            }
                        ],
                        "children": [
                            {
                                "getData": {
                                    "source": "ExecCtrl",
                                    "element": "PhaseListEnablePhase",
                                    "params": [
                                        {
                                            "paramName": "PhaseList",
                                            "paramValue": "%Parent0%"
                                        },
                                        {
                                            "paramName": "Phase",
                                            "paramValue": "%Parent1%"
                                        }
                                    ]
                                }
                            }
                        ]
                    }
                },
                {
                    "getData": {
                        "source": "DataSource",
                        "element": "sizeOf",
                        "params": [
                            {
                                "paramName": "Source",
                                "paramValue": "ExecCtrl"
                            },
                            {
                                "paramName": "Element",
                                "paramValue": "ScenariosOfScenarioGroupsWithPhaseList"
                            },
                            {
                                "paramName": "ParamName",
                                "paramValue": "PhaseList"
                            },
                            {
                                "paramName": "ParamValue",
                                "paramValue": "%Parent0%"
                            }
                        ]
                    }
                },
                {
                    "getData": {
                        "source": "ExecCtrl",
                        "element": "ScenariosOfScenarioGroupsWithPhaseList",
                        "params": [
                            {
                                "paramName": "PhaseList",
                                "paramValue": "%Parent0%"
                            }
                        ],
                        "children": [
                            {
                                "getData": {
                                    "source": "ExecCtrl",
                                    "element": "ScenarioGroupOfScenariosOfScenarioGroupsWithPhaseList",
                                    "params": [
                                        {
                                            "paramName": "ScenarioOfScenarioGroup",
                                            "paramValue": "%Parent1%"
                                        }
                                    ],
                                    "children": [
                                        {
                                            "getData": {
                                                "source": "ExecCtrl",
                                                "element": "ScGrpCurrentPhase",
                                                "params": [
                                                    {
                                                        "paramName": "ScenarioGroup",
                                                        "paramValue": "%Parent2%"
                                                    }
                                                ]
                                            }
                                        },
                                        {
                                            "getData": {
                                                "source": "ExecCtrl",
                                                "element": "ScGrpMode",
                                                "params": [
                                                    {
                                                        "paramName": "ScenarioGroup",
                                                        "paramValue": "%Parent2%"
                                                    }
                                                ]
                                            }
                                        },
                                        {
                                            "getData": {
                                                "source": "ExecCtrl",
                                                "element": "ScGrpStatus",
                                                "params": [
                                                    {
                                                        "paramName": "ScenarioGroup",
                                                        "paramValue": "%Parent2%"
                                                    }
                                                ]
                                            }
                                        },
                                        {
                                            "getData": {
                                                "source": "ExecCtrl",
                                                "element": "ScGrpStart",
                                                "params": [
                                                    {
                                                        "paramName": "ScenarioGroup",
                                                        "paramValue": "%Parent2%"
                                                    }
                                                ]
                                            }
                                        },
                                        {
                                            "getData": {
                                                "source": "ExecCtrl",
                                                "element": "ScGrpReset",
                                                "params": [
                                                    {
                                                        "paramName": "ScenarioGroup",
                                                        "paramValue": "%Parent2%"
                                                    }
                                                ]
                                            }
                                        },
                                        {
                                            "getData": {
                                                "source": "ExecCtrl",
                                                "element": "ScenarioOfScenariosOfScenarioGroupsWithPhaseList",
                                                "params": [
                                                    {
                                                        "paramName": "ScenarioOfScenarioGroup",
                                                        "paramValue": "%Parent1%"
                                                    }
                                                ],
                                                "children": [
                                                    {
                                                        "getData": {
                                                            "source": "ExecCtrl",
                                                            "element": "NofDeployedLGens",
                                                            "params": [
                                                                {
                                                                    "paramName": "ScenarioInstance",
                                                                    "paramValue": "%Parent3%"
                                                                }
                                                            ]
                                                        }
                                                    },
                                                    {
                                                        "getData": {
                                                            "source": "ExecCtrl",
                                                            "element": "ScGrpScStatus",
                                                            "params": [
                                                                {
                                                                    "paramName": "ScenarioGroup",
                                                                    "paramValue": "%Parent2%"
                                                                },
                                                                {
                                                                    "paramName": "ScenarioInstance",
                                                                    "paramValue": "%Parent3%"
                                                                }
                                                            ]
                                                        }
                                                    },
                                                    {
                                                        "getData": {
                                                            "source": "ExecCtrl",
                                                            "element": "Phases",
                                                            "params": [
                                                                {
                                                                    "paramName": "PhaseList",
                                                                    "paramValue": "%Parent0%"
                                                                }
                                                            ],
                                                            "children": [
                                                                {
                                                                    "getData": {
                                                                        "source": "ExecCtrl",
                                                                        "element": "ScGrpScEnablePhase",
                                                                        "params": [
                                                                            {
                                                                                "paramName": "ScenarioInstance",
                                                                                "paramValue": "%Parent3%"
                                                                            },
                                                                            {
                                                                                "paramName": "Phase",
                                                                                "paramValue": "%Parent4%"
                                                                            }
                                                                        ],
                                                                        "filter": {
                                                                            "request": {
                                                                                "source": "DataSource",
                                                                                "element": "dataElementPresent",
                                                                                "params": [
                                                                                    {
                                                                                        "paramName": "Source",
                                                                                        "paramValue": {
                                                                                            "dataValue": "ExecCtrl"
                                                                                        }
                                                                                    },
                                                                                    {
                                                                                        "paramName": "Element",
                                                                                        "paramValue": {
                                                                                            "dataValue": "ScGrpScEnablePhase"
                                                                                        }
                                                                                    },
                                                                                    {
                                                                                        "paramName": "ParamName",
                                                                                        "paramValue": {
                                                                                            "dataValue": "ScenarioInstance"
                                                                                        }
                                                                                    },
                                                                                    {
                                                                                        "paramName": "ParamValue",
                                                                                        "paramValue": {
                                                                                            "dataValue": "%Parent3%"
                                                                                        }
                                                                                    },
                                                                                    {
                                                                                        "paramName": "ParamName",
                                                                                        "paramValue": {
                                                                                            "dataValue": "Phase"
                                                                                        }
                                                                                    },
                                                                                    {
                                                                                        "paramName": "ParamValue",
                                                                                        "paramValue": {
                                                                                            "dataValue": "%Parent4%"
                                                                                        }
                                                                                    }
                                                                                ]
                                                                            }
                                                                        }
                                                                    }
                                                                }
                                                            ]
                                                        }
                                                    }
                                                ]
                                            }
                                        }
                                    ]
                                }
                            }
                        ],
                        "rangeFilter": {
                            "offset": 0,
                            "count": 20
                        }
                    }
                }
            ],
            "selection": [
                0
            ]
        }
    }
]