[
    {
        "class": "CView_Table_Vertical",
        "customData": {
            "css": {
                "margin-bottom": "2px",
                "padding": "4px",
                "border": "1px solid gray"
            },
            "displayHeader": false,
            "autoHeight": true,
            "columns": [
                {},
                {
                    "subView": "CView_CheckboxOrSwitch"
                }
            ],
            "processCss": {
                "table td": {
                    "text-align": "center"
                },
                ".CheckBoxOrSwitch": {
                    "margin": "auto"
                }
            },
            "class": "TableGray_Vertical"
        },
        "viewModelIndexes": [
            1
        ],
        "idsCreating": [],
        "parentID": "EPTF_CLL_ExecCtrl_PhaseLists_CView_Aligner_1_CView_TabsWithData_0_CView_Aligner_0"
    },
    {
        "class": "CView_TabsWithData",
        "customData": {
            "css": {
                "margin-bottom": "2px",
                "padding": "4px",
                "border": "1px solid gray"
            }
        },
        "viewModelIndexes": [
            2
        ],
        "idsCreating": [
            "EPTF_CLL_ExecCtrl_PhaseLists_CView_Aligner_1_CView_TabsWithData_0"
        ],
        "parentID": "EPTF_CLL_ExecCtrl_PhaseLists_CView_Aligner_1"
    },
    {
        "class": "CView_Aligner",
        "customData": {
            "orientation": "vertical"
        },
        "viewModelIndexes": [],
        "idsCreating": [
            "EPTF_CLL_ExecCtrl_PhaseLists_CView_Aligner_1_CView_TabsWithData_0_CView_Aligner_0",
            "EPTF_CLL_ExecCtrl_PhaseLists_CView_Aligner_1_CView_TabsWithData_0_CView_Aligner_1"
        ],
        "parentID": "EPTF_CLL_ExecCtrl_PhaseLists_CView_Aligner_1_CView_TabsWithData_0"
    },
    {
        "class": "CView_ElementTableForLargeData",
        "customData": {
            "class": "TableGray",
            "displayName": false,
            "autoHeight": true,
            "columns": [
                {},
                {
                    "subView": "CView_Label"
                },
                {
                    "subView": "CView_Label"
                },
                {
                    "subView": "CView_StatusLED"
                },
                {
                    "subView": "CView_CheckboxOrSwitch"
                },
                {
                    "subView": "CView_CheckboxOrSwitch"
                },
                {},
                {
                    "subView": "CView_Label",
                    "disabled": true
                },
                {
                    "subView": "CView_StatusLED"
                },
                {
                    "subView": "CView_CheckboxOrSwitch"
                }
            ],
            "css": {
                "margin-bottom": "2px",
                "padding": "4px",
                "border": "1px solid gray"
            },
            "processCss": {
                "INPUT": {
                    "width": "100%"
                },
                "DIV INPUT[type=checkbox]": {
                    "width": "auto"
                }
            }
        },
        "viewModelIndexes": [
            3,
            0
        ],
        "idsCreating": [],
        "parentID": "EPTF_CLL_ExecCtrl_PhaseLists_CView_Aligner_1_CView_TabsWithData_0_CView_Aligner_1"
    },
    {
        "class": "CView_Aligner",
        "customData": {
            "orientation": "vertical",
            "css": {
                "overflow": "auto"
            }
        },
        "viewModelIndexes": [],
        "idsCreating": [
            "EPTF_CLL_ExecCtrl_PhaseLists_CView_Aligner_0",
            "EPTF_CLL_ExecCtrl_PhaseLists_CView_Aligner_1",
            "EPTF_CLL_ExecCtrl_PhaseLists_CView_Aligner_2"
        ],
        "parentID": "EPTF_CLL_ExecCtrl_PhaseLists"
    }
]