{
    "ViewmodelEditors": [
        {
            "pos": {
                "top": 125,
                "left": 389
            },
            "visible": true
        },
        {
            "pos": {
                "top": 0,
                "left": 250
            },
            "visible": true
        }
    ],
    "ViewEditors": [
        {
            "pos": {
                "top": 0,
                "left": 610
            },
            "visible": true
        },
        {
            "pos": {
                "top": 141,
                "left": 623
            },
            "visible": true
        },
        {
            "pos": {
                "top": 72,
                "left": 803
            },
            "visible": true
        }
    ],
    "Imports": [],
    "HtmlEditor": {
        "pos": {
            "top": 0,
            "left": 970
        },
        "visible": true
    },
    "RequestEditor": {}
}