{
    "ViewmodelEditors": [
        {
            "pos": {
                "top": 130,
                "left": 286
            },
            "visible": false
        },
        {
            "pos": {
                "top": 30,
                "left": 293
            },
            "visible": false
        },
        {
            "pos": {
                "top": 106,
                "left": 321
            },
            "visible": false
        },
        {
            "pos": {
                "top": 508,
                "left": 313
            },
            "visible": false
        },
        {
            "pos": {
                "top": 311,
                "left": 291
            },
            "visible": false
        },
        {
            "pos": {
                "top": 460,
                "left": 307
            },
            "visible": false
        },
        {
            "pos": {
                "top": 270,
                "left": 289
            },
            "visible": false
        },
        {
            "pos": {
                "top": 191,
                "left": 293
            },
            "visible": false
        },
        {
            "pos": {
                "top": 216,
                "left": 295
            },
            "visible": false
        },
        {
            "pos": {
                "top": 242,
                "left": 295
            },
            "visible": false
        },
        {
            "pos": {
                "top": 9,
                "left": 745
            },
            "visible": false
        },
        {
            "pos": {
                "top": 630,
                "left": 350
            },
            "visible": false
        },
        {
            "pos": {
                "top": 679,
                "left": 344
            },
            "visible": false
        }
    ],
    "ViewEditors": [
        {
            "pos": {
                "top": 134,
                "left": 791
            },
            "visible": false
        },
        {
            "pos": {
                "top": 212,
                "left": 1103
            },
            "visible": false
        },
        {
            "pos": {
                "top": 75,
                "left": 564
            },
            "visible": false
        },
        {
            "pos": {
                "top": 508,
                "left": 575
            },
            "visible": false
        },
        {
            "pos": {
                "top": 312,
                "left": 590
            },
            "visible": false
        },
        {
            "pos": {
                "top": 335,
                "left": 827
            },
            "visible": false
        },
        {
            "pos": {
                "top": 461,
                "left": 583
            },
            "visible": false
        },
        {
            "pos": {
                "top": 341,
                "left": 629
            },
            "visible": false
        },
        {
            "pos": {
                "top": 405,
                "left": 741
            },
            "visible": false
        },
        {
            "pos": {
                "top": 269,
                "left": 579
            },
            "visible": false
        },
        {
            "pos": {
                "top": 163,
                "left": 714
            },
            "visible": false
        },
        {
            "pos": {
                "top": 190,
                "left": 582
            },
            "visible": false
        },
        {
            "pos": {
                "top": 218,
                "left": 582
            },
            "visible": false
        },
        {
            "pos": {
                "top": 243,
                "left": 580
            },
            "visible": false
        },
        {
            "pos": {
                "top": 104,
                "left": 578
            },
            "visible": false
        },
        {
            "pos": {
                "top": 249,
                "left": 999
            },
            "visible": false
        },
        {
            "pos": {
                "top": 109,
                "left": 1218
            },
            "visible": false
        },
        {
            "pos": {
                "top": 309,
                "left": 1171
            },
            "visible": false
        },
        {
            "pos": {
                "top": 75,
                "left": 1304
            },
            "visible": false
        },
        {
            "pos": {
                "top": 631,
                "left": 819
            },
            "visible": false
        },
        {
            "pos": {
                "top": 677,
                "left": 817
            },
            "visible": false
        }
    ],
    "HtmlEditor": {
        "pos": {
            "top": 104,
            "left": 1474
        },
        "visible": false
    },
    "RequestEditor": {},
    "Imports": [
        {
            "pos": {
                "top": 353,
                "left": 1209
            },
            "visible": false
        },
        {
            "pos": {
                "top": 34,
                "left": 1208
            },
            "visible": false
        }
    ]
}