[
    {
        "class": "CView_ElementTableForLargeData",
        "customData": {
            "class": "TableGray",
            "autoHeight": true,
            "flex": 1,
            "displayName": false
        },
        "viewModelIndexes": [
            0
        ],
        "idsCreating": [],
        "parentID": "EPTF_CLL_HostAdminServer_CView_Aligner_1_CView_Condition_0_CView_Aligner_1_CView_Aligner_0"
    },
    {
        "class": "CView_Aligner",
        "customData": {
            "orientation": "vertical"
        },
        "viewModelIndexes": [],
        "idsCreating": [
            "EPTF_CLL_HostAdminServer_CView_Aligner_1_CView_Condition_0_CView_Aligner_0",
            "EPTF_CLL_HostAdminServer_CView_Aligner_1_CView_Condition_0_CView_Aligner_1",
            "EPTF_CLL_HostAdminServer_CView_Aligner_1_CView_Condition_0_CView_Aligner_2",
            "EPTF_CLL_HostAdminServer_CView_Aligner_1_CView_Condition_0_CView_Aligner_3",
            "EPTF_CLL_HostAdminServer_CView_Aligner_1_CView_Condition_0_CView_Aligner_4"
        ],
        "parentID": "EPTF_CLL_HostAdminServer_CView_Aligner_1_CView_Condition_0"
    },
    {
        "class": "CView_ElementTable",
        "customData": {
            "class": "TableGray",
            "css": {
                "margin-bottom": "2px",
                "padding": "4px",
                "border": "1px solid gray"
            },
            "displayName": false,
            "columns": [
                {
                    "flex": 1
                },
                {
                    "flex": 1
                },
                {
                    "flex": 1
                },
                {
                    "flex": 1
                }
            ]
        },
        "viewModelIndexes": [
            1,
            2
        ],
        "idsCreating": [],
        "parentID": "EPTF_CLL_HostAdminServer_CView_Aligner_1_CView_Condition_0_CView_Aligner_0"
    },
    {
        "class": "CView_ElementTable",
        "customData": {
            "class": "TableGray",
            "name": "All EPTF processes",
            "columns": [
                {
                    "flex": 1
                },
                {
                    "flex": 1
                },
                {
                    "flex": 1
                },
                {
                    "flex": 1
                },
                {
                    "flex": 1
                }
            ],
            "css": {
                "margin-bottom": "2px",
                "padding": "4px",
                "border": "1px solid gray"
            },
            "autoHeight": true
        },
        "viewModelIndexes": [
            3,
            2
        ],
        "idsCreating": [],
        "parentID": "EPTF_CLL_HostAdminServer_CView_Aligner_1_CView_Condition_0_CView_Aligner_2"
    },
    {
        "class": "CView_ElementTable",
        "customData": {
            "class": "TableGray",
            "name": "Processes on this host",
            "columns": [
                {
                    "flex": 1
                },
                {
                    "flex": 1
                },
                {
                    "subView": "CView_StatusLED",
                    "flex": 1
                },
                {
                    "flex": 1
                }
            ],
            "css": {
                "margin-bottom": "2px",
                "padding": "4px",
                "border": "1px solid gray"
            },
            "autoHeight": true
        },
        "viewModelIndexes": [
            4,
            2
        ],
        "idsCreating": [],
        "parentID": "EPTF_CLL_HostAdminServer_CView_Aligner_1_CView_Condition_0_CView_Aligner_1_CView_Aligner_1_CView_Aligner_3"
    },
    {
        "class": "CView_Aligner",
        "customData": {
            "orientation": "vertical",
            "processCss": {
                "INPUT:disabled": {
                    "color": "black"
                }
            },
            "flex": 9
        },
        "viewModelIndexes": [],
        "idsCreating": [
            "EPTF_CLL_HostAdminServer_CView_Aligner_1_CView_Condition_0_CView_Aligner_1_CView_Aligner_1_CView_Aligner_0",
            "EPTF_CLL_HostAdminServer_CView_Aligner_1_CView_Condition_0_CView_Aligner_1_CView_Aligner_1_CView_Aligner_1",
            "EPTF_CLL_HostAdminServer_CView_Aligner_1_CView_Condition_0_CView_Aligner_1_CView_Aligner_1_CView_Aligner_2",
            "EPTF_CLL_HostAdminServer_CView_Aligner_1_CView_Condition_0_CView_Aligner_1_CView_Aligner_1_CView_Aligner_3"
        ],
        "parentID": "EPTF_CLL_HostAdminServer_CView_Aligner_1_CView_Condition_0_CView_Aligner_1_CView_Aligner_1"
    },
    {
        "class": "CView_ComboBox",
        "customData": {},
        "viewModelIndexes": [
            5
        ],
        "idsCreating": [],
        "parentID": "EPTF_CLL_HostAdminServer_CView_Aligner_1_CView_Condition_0_CView_Aligner_1_CView_Aligner_1_CView_Aligner_2_CView_Aligner_1"
    },
    {
        "class": "CView_Label",
        "customData": {
            "text": "Sort processes by: ",
            "disabled": true
        },
        "viewModelIndexes": [],
        "idsCreating": [],
        "parentID": "EPTF_CLL_HostAdminServer_CView_Aligner_1_CView_Condition_0_CView_Aligner_1_CView_Aligner_1_CView_Aligner_2_CView_Aligner_0"
    },
    {
        "class": "CView_Aligner",
        "customData": {
            "css": {
                "margin-bottom": "2px",
                "padding": "4px",
                "border": "1px solid gray"
            }
        },
        "viewModelIndexes": [],
        "idsCreating": [
            "EPTF_CLL_HostAdminServer_CView_Aligner_1_CView_Condition_0_CView_Aligner_1_CView_Aligner_1_CView_Aligner_2_CView_Aligner_0",
            "EPTF_CLL_HostAdminServer_CView_Aligner_1_CView_Condition_0_CView_Aligner_1_CView_Aligner_1_CView_Aligner_2_CView_Aligner_1"
        ],
        "parentID": "EPTF_CLL_HostAdminServer_CView_Aligner_1_CView_Condition_0_CView_Aligner_1_CView_Aligner_1_CView_Aligner_2"
    },
    {
        "class": "CView_ElementTable",
        "customData": {
            "class": "TableGray",
            "displayName": false,
            "displayHeader": false,
            "autoHeight": true,
            "columns": [
                {
                    "flex": 1,
                    "subView": "CView_Label",
                    "disabled": true
                },
                {
                    "flex": 1,
                    "subView": "CView_Label",
                    "disabled": true
                }
            ],
            "css": {
                "margin-bottom": "2px",
                "padding": "0px 4px 4px 4px",
                "border-bottom": "1px solid gray",
                "border-left": "1px solid gray",
                "border-right": "1px solid gray"
            }
        },
        "viewModelIndexes": [
            6,
            2
        ],
        "idsCreating": [],
        "parentID": "EPTF_CLL_HostAdminServer_CView_Aligner_1_CView_Condition_0_CView_Aligner_1_CView_Aligner_1_CView_Aligner_1"
    },
    {
        "class": "CView_Aligner",
        "customData": {
            "orientation": "vertical"
        },
        "viewModelIndexes": [],
        "idsCreating": [
            "EPTF_CLL_HostAdminServer_CView_Aligner_1_CView_Condition_0_CView_Aligner_1_CView_Aligner_1_CView_Aligner_0_CView_Aligner_0",
            "EPTF_CLL_HostAdminServer_CView_Aligner_1_CView_Condition_0_CView_Aligner_1_CView_Aligner_1_CView_Aligner_0_CView_Aligner_1",
            "EPTF_CLL_HostAdminServer_CView_Aligner_1_CView_Condition_0_CView_Aligner_1_CView_Aligner_1_CView_Aligner_0_CView_Aligner_2",
            "EPTF_CLL_HostAdminServer_CView_Aligner_1_CView_Condition_0_CView_Aligner_1_CView_Aligner_1_CView_Aligner_0_CView_Aligner_3"
        ],
        "parentID": "EPTF_CLL_HostAdminServer_CView_Aligner_1_CView_Condition_0_CView_Aligner_1_CView_Aligner_1_CView_Aligner_0"
    },
    {
        "class": "CView_ElementAligner",
        "customData": {
            "subviews": [
                {
                    "subView": "CView_Label",
                    "text": "Physical memory",
                    "disabled": true
                },
                {
                    "subView": "CView_Label",
                    "disabled": true
                }
            ],
            "flexCalculation": true,
            "css": {
                "padding": "0px 4px 0px 4px",
                "border-left": "1px solid gray",
                "border-right": "1px solid gray"
            },
            "processCss": {
                ".Aligner_Horizontal_Content": {
                    "background-color": "#d0d0d0"
                }
            }
        },
        "viewModelIndexes": [
            7,
            2
        ],
        "idsCreating": [],
        "parentID": "EPTF_CLL_HostAdminServer_CView_Aligner_1_CView_Condition_0_CView_Aligner_1_CView_Aligner_1_CView_Aligner_0_CView_Aligner_1"
    },
    {
        "class": "CView_ElementAligner",
        "customData": {
            "subviews": [
                {
                    "subView": "CView_Label",
                    "text": "Free memory",
                    "disabled": true
                },
                {
                    "subView": "CView_Label",
                    "disabled": true
                }
            ],
            "flexCalculation": true,
            "css": {
                "padding": "0px 4px",
                "border-left": "1px solid gray",
                "border-right": "1px solid gray"
            },
            "processCss": {
                ".Aligner_Horizontal_Content": {
                    "background-color": "#d0d0d0"
                }
            }
        },
        "viewModelIndexes": [
            8,
            2
        ],
        "idsCreating": [],
        "parentID": "EPTF_CLL_HostAdminServer_CView_Aligner_1_CView_Condition_0_CView_Aligner_1_CView_Aligner_1_CView_Aligner_0_CView_Aligner_2"
    },
    {
        "class": "CView_ElementAligner",
        "customData": {
            "subviews": [
                {
                    "subView": "CView_Label",
                    "text": "CPU load [%]",
                    "disabled": true
                },
                {
                    "subView": "CView_Label",
                    "disabled": true
                }
            ],
            "flexCalculation": true,
            "css": {
                "padding": "0px 4px",
                "border-left": "1px solid gray",
                "border-right": "1px solid gray"
            },
            "processCss": {
                ".Aligner_Horizontal_Content": {
                    "background-color": "#d0d0d0"
                }
            }
        },
        "viewModelIndexes": [
            9,
            2
        ],
        "idsCreating": [],
        "parentID": "EPTF_CLL_HostAdminServer_CView_Aligner_1_CView_Condition_0_CView_Aligner_1_CView_Aligner_1_CView_Aligner_0_CView_Aligner_3"
    },
    {
        "class": "CView_ElementAligner",
        "customData": {
            "subviews": [
                {
                    "subView": "CView_Label",
                    "text": "Host Statistics",
                    "disabled": true
                },
                {
                    "subView": "CView_Label",
                    "text": "Value",
                    "disabled": true
                }
            ],
            "flexCalculation": true,
            "css": {
                "padding": "4px 4px 0px 4px",
                "border-top": "1px solid gray",
                "border-left": "1px solid gray",
                "border-right": "1px solid gray"
            },
            "processCss": {
                ".Aligner_Horizontal_Content": {
                    "background-color": "#8d8d8d",
                    "border-bottom": "1px solid black"
                },
                "INPUT": {
                    "font-size": "14px",
                    "font-weight": "bold"
                }
            }
        },
        "viewModelIndexes": [
            2
        ],
        "idsCreating": [],
        "parentID": "EPTF_CLL_HostAdminServer_CView_Aligner_1_CView_Condition_0_CView_Aligner_1_CView_Aligner_1_CView_Aligner_0_CView_Aligner_0"
    },
    {
        "class": "CView_Aligner",
        "customData": {
            "css": {
                "margin-bottom": "2px",
                "padding": "4px",
                "border": "1px solid gray"
            },
            "flexCalculation": true,
            "resizable": true
        },
        "viewModelIndexes": [
            2
        ],
        "idsCreating": [
            "EPTF_CLL_HostAdminServer_CView_Aligner_1_CView_Condition_0_CView_Aligner_1_CView_Aligner_0",
            "EPTF_CLL_HostAdminServer_CView_Aligner_1_CView_Condition_0_CView_Aligner_1_CView_Aligner_1"
        ],
        "parentID": "EPTF_CLL_HostAdminServer_CView_Aligner_1_CView_Condition_0_CView_Aligner_1"
    },
    {
        "class": "CView_Condition",
        "customData": {},
        "viewModelIndexes": [
            10
        ],
        "idsCreating": [
            "EPTF_CLL_HostAdminServer_CView_Aligner_1_CView_Condition_0",
            "EPTF_CLL_HostAdminServer_CView_Aligner_1_CView_Condition_1"
        ],
        "parentID": "EPTF_CLL_HostAdminServer_CView_Aligner_1"
    },
    {
        "class": "CView_Div",
        "customData": {
            "text": "HostAdminServer is disabled!",
            "css": {
                "font-size": "20px",
                "font-weight": "bold",
                "text-align": "center"
            }
        },
        "viewModelIndexes": [],
        "idsCreating": [],
        "parentID": "EPTF_CLL_HostAdminServer_CView_Aligner_1_CView_Condition_1"
    },
    {
        "class": "CView_Aligner",
        "customData": {
            "css": {
                "overflow": "auto"
            },
            "orientation": "vertical"
        },
        "viewModelIndexes": [],
        "idsCreating": [
            "EPTF_CLL_HostAdminServer_CView_Aligner_0",
            "EPTF_CLL_HostAdminServer_CView_Aligner_1"
        ],
        "parentID": "EPTF_CLL_HostAdminServer"
    },
    {
        "class": "CView_Chart",
        "customData": {
            "width": "100%",
            "type": "timeseries",
            "yTicksFormat": "data",
            "zoomAndPan": false,
            "css": {
                "margin-bottom": "2px",
                "padding": "4px",
                "border": "1px solid gray"
            },
            "title": "Memory Usage"
        },
        "viewModelIndexes": [
            11
        ],
        "idsCreating": [],
        "parentID": "EPTF_CLL_HostAdminServer_CView_Aligner_1_CView_Condition_0_CView_Aligner_3"
    },
    {
        "class": "CView_Chart",
        "customData": {
            "width": "100%",
            "type": "timeseries",
            "yTicksFormat": "percent",
            "zoomAndPan": false,
            "css": {
                "margin-bottom": "2px",
                "padding": "4px",
                "border": "1px solid gray"
            },
            "title": "CPU Load"
        },
        "viewModelIndexes": [
            12
        ],
        "idsCreating": [],
        "parentID": "EPTF_CLL_HostAdminServer_CView_Aligner_1_CView_Condition_0_CView_Aligner_4"
    }
]