{
    "ViewmodelEditors": [
        {
            "pos": {
                "top": 65,
                "left": 387
            },
            "visible": true
        }
    ],
    "ViewEditors": [
        {
            "pos": {
                "top": 69,
                "left": 637.0000610351562
            },
            "visible": true
        }
    ],
    "HtmlEditor": {
        "pos": {
            "top": 106.95001220703125,
            "left": 888.9666137695312
        },
        "visible": true
    },
    "RequestEditor": {}
}