[
    {
        "class": "CView_TabsWithData",
        "customData": {
            "orientation": "horizontal",
            "css": {
                "border": "2px solid grey",
                "padding": "3px"
            }
        },
        "viewModelIndexes": [
            0
        ],
        "idsCreating": [
            "setuptabs_View_TabsWithData_0"
        ],
        "parentID": "setuptabs"
    },
    {
        "class": "CView_TabsWithData",
        "customData": {
            "orientation": "vertical",
            "css": {
                "border": "2px solid grey",
                "padding": "3px"
            }
        },
        "viewModelIndexes": [
            1
        ],
        "idsCreating": [
            "setuptabs_View_TabsWithData_0_View_TabsWithData_0"
        ],
        "parentID": "setuptabs_View_TabsWithData_0"
    },
    {
        "class": "CAutoGuiView",
        "customData": {},
        "viewModelIndexes": [
            2
        ],
        "idsCreating": [],
        "parentID": "setuptabs_View_TabsWithData_0_View_TabsWithData_0"
    }
]