[
    {
        "class": "CView_SetupTabs",
        "customData": {},
        "viewModelIndexes": [
            0
        ],
        "idsCreating": [],
        "parentID": "EPTF_CLL_SetupTabs"
    }
]