[
    {
        "getData": {
            "source": "ExecCtrl",
            "element": "EntityGroups",
            "children": [
                {
                    "getData": {
                        "source": "ExecCtrl",
                        "element": "Scenarios",
                        "params": [
                            {
                                "paramName": "EntityGroup",
                                "paramValue": "%Parent0%"
                            }
                        ],
                        "children": [
                            {
                                "getData": {
                                    "source": "ExecCtrl",
                                    "element": "TrafficCases",
                                    "params": [
                                        {
                                            "paramName": "EntityGroup",
                                            "paramValue": "%Parent0%"
                                        },
                                        {
                                            "paramName": "Scenario",
                                            "paramValue": "%Parent1%"
                                        }
                                    ],
                                    "children": [
                                        {
                                            "getData": {
                                                "source": "ExecCtrl",
                                                "element": "TcStats",
                                                "children": [
                                                    {
                                                        "getData": {
                                                            "source": "ExecCtrl",
                                                            "element": "TcStat",
                                                            "params": [
                                                                {
                                                                    "paramName": "EntityGroup",
                                                                    "paramValue": "%Parent0%"
                                                                },
                                                                {
                                                                    "paramName": "Scenario",
                                                                    "paramValue": "%Parent1%"
                                                                },
                                                                {
                                                                    "paramName": "TrafficCase",
                                                                    "paramValue": "%Parent2%"
                                                                },
                                                                {
                                                                    "paramName": "Statistic",
                                                                    "paramValue": "%Parent3%"
                                                                }
                                                            ]
                                                        }
                                                    },
                                                    {
                                                        "getData": {
                                                            "source": "ExecCtrl",
                                                            "element": "TcStatDelta",
                                                            "params": [
                                                                {
                                                                    "paramName": "EntityGroup",
                                                                    "paramValue": "%Parent0%"
                                                                },
                                                                {
                                                                    "paramName": "Scenario",
                                                                    "paramValue": "%Parent1%"
                                                                },
                                                                {
                                                                    "paramName": "TrafficCase",
                                                                    "paramValue": "%Parent2%"
                                                                },
                                                                {
                                                                    "paramName": "Statistic",
                                                                    "paramValue": "%Parent3%"
                                                                }
                                                            ]
                                                        }
                                                    }
                                                ]
                                            }
                                        },
                                        {
                                            "getData": {
                                                "source": "ExecCtrl",
                                                "element": "FsmStats",
                                                "params": [
                                                    {
                                                        "paramName": "EntityGroup",
                                                        "paramValue": "%Parent0%"
                                                    },
                                                    {
                                                        "paramName": "Scenario",
                                                        "paramValue": "%Parent1%"
                                                    },
                                                    {
                                                        "paramName": "TrafficCase",
                                                        "paramValue": "%Parent2%"
                                                    }
                                                ],
                                                "children": [
                                                    {
                                                        "getData": {
                                                            "source": "ExecCtrl",
                                                            "element": "FSMStat",
                                                            "params": [
                                                                {
                                                                    "paramName": "EntityGroup",
                                                                    "paramValue": "%Parent0%"
                                                                },
                                                                {
                                                                    "paramName": "Scenario",
                                                                    "paramValue": "%Parent1%"
                                                                },
                                                                {
                                                                    "paramName": "TrafficCase",
                                                                    "paramValue": "%Parent2%"
                                                                },
                                                                {
                                                                    "paramName": "Statistic",
                                                                    "paramValue": "%Parent3%"
                                                                }
                                                            ]
                                                        }
                                                    }
                                                ]
                                            }
                                        }
                                    ],
                                    "selection": [
                                        0
                                    ]
                                }
                            }
                        ],
                        "selection": [
                            0
                        ]
                    }
                }
            ],
            "selection": [
                0
            ]
        }
    }
]