[
    {
        "class": "CView_ElementTable",
        "customData": {
            "name": "Alma"
        },
        "viewModelIndexes": [
            0
        ],
        "idsCreating": [],
        "parentID": "a"
    }
]