[
    {
        "class": "CViewModel_PivotTable",
        "customData": {},
        "dataPathStrList": [
            "EntityGroups.Scenarios.TrafficCases.FsmStats",
            "EntityGroups.Scenarios.TrafficCases.TcStats"
        ],
        "dataPathList": [
            [
                0,
                0,
                0,
                1
            ],
            [
                0,
                0,
                0,
                0
            ]
        ],
        "selectionToControlPathStrList": [],
        "selectionToControlPathList": []
    }
]