{
    "ViewmodelEditors": [
        {
            "pos": {
                "top": 95,
                "left": 364
            },
            "visible": true
        }
    ],
    "ViewEditors": [
        {
            "pos": {
                "top": 41,
                "left": 697.0000610351562
            },
            "visible": true
        },
        {
            "pos": {
                "top": 222,
                "left": 712.0000610351562
            },
            "visible": true
        }
    ],
    "HtmlEditor": {
        "pos": {
            "top": 128.95001220703125,
            "left": 934.9666137695312
        },
        "visible": true
    },
    "RequestEditor": {}
}