[
    {
        "class": "CViewModel_ElementRelay",
        "customData": {},
        "dataPathStrList": [
            "ProcessSortOption",
            "ProcessSortOptionList"
        ],
        "dataPathList": [
            [
                1
            ],
            [
                0
            ]
        ],
        "selectionToControlPathStrList": [],
        "selectionToControlPathList": []
    }
]