[
    {
        "setupName": "EPTF_CLL_ExecCtrl_CommonControls",
        "parentID": "CommonControls"
    },
    {
        "setupName": "EPTF_CLL_SetupTabs",
        "parentID": "Setup_IMSBasic_CView_Aligner_0"
    }
]