[
    {
        "class": "CViewModel_TableForLargeData",
        "customData": {
            "header": [
                "EntityGroup",
                "Type",
                "Size"
            ],
            "streamingThreshold": 20,
            "allowScrollBelow": false
        },
        "dataPathStrList": [
            "sizeOf",
            "sizeOf.EntityGroups"
        ],
        "dataPathList": [
            [
                0
            ],
            [
                0,
                0
            ]
        ],
        "selectionToControlPathStrList": [
            "sizeOf.EntityGroups"
        ],
        "selectionToControlPathList": [
            [
                0,
                1
            ]
        ]
    },
    {
        "class": "CViewModel_FlexAligner",
        "customData": {},
        "dataPathStrList": [],
        "dataPathList": [],
        "selectionToControlPathStrList": [],
        "selectionToControlPathList": []
    },
    {
        "class": "CViewModel_TableForLargeData",
        "customData": {
            "header": [
                "Scenario",
                "Start",
                "Stop",
                "Status",
                "Target CPS",
                "Current CPS"
            ],
            "streamingThreshold": 20,
            "allowScrollBelow": false
        },
        "dataPathStrList": [
            "sizeOf.EntityGroups.sizeOf",
            "sizeOf.EntityGroups.Scenarios",
            "sizeOf.EntityGroups.Scenarios.ScStartButton",
            "sizeOf.EntityGroups.Scenarios.ScStopButton",
            "sizeOf.EntityGroups.Scenarios.ScStatus",
            "sizeOf.EntityGroups.Scenarios.IsWeightedSc.ScTargetCPS",
            "sizeOf.EntityGroups.Scenarios.IsWeightedSc.ScCPS"
        ],
        "dataPathList": [
            [
                0,
                1,
                0
            ],
            [
                0,
                1,
                1
            ],
            [
                0,
                1,
                1,
                0
            ],
            [
                0,
                1,
                1,
                1
            ],
            [
                0,
                1,
                1,
                2
            ],
            [
                0,
                1,
                1,
                3,
                0
            ],
            [
                0,
                1,
                1,
                3,
                1
            ]
        ],
        "selectionToControlPathStrList": [
            "sizeOf.EntityGroups.Scenarios"
        ],
        "selectionToControlPathList": [
            [
                0,
                1,
                2
            ]
        ]
    },
    {
        "class": "CViewModel_TableForLargeData",
        "customData": {
            "header": [
                "Traffic Case",
                "Start",
                "Stop",
                "Status",
                "CPS / Weight"
            ],
            "streamingThreshold": 20,
            "allowScrollBelow": false
        },
        "dataPathStrList": [
            "sizeOf.EntityGroups.Scenarios.sizeOf",
            "sizeOf.EntityGroups.Scenarios.TrafficCases"
        ],
        "dataPathList": [
            [
                0,
                1,
                2,
                0
            ],
            [
                0,
                1,
                2,
                1
            ]
        ],
        "selectionToControlPathStrList": [],
        "selectionToControlPathList": []
    },
    {
        "class": "CViewModel_TableForLargeData",
        "customData": {
            "header": [
                "Scenario Group",
                "Start",
                "Reset",
                "Current Phase",
                "Group Status"
            ],
            "streamingThreshold": 20,
            "allowScrollBelow": false
        },
        "dataPathStrList": [
            "sizeOf",
            "sizeOf.ScenarioGroups"
        ],
        "dataPathList": [
            [
                1
            ],
            [
                1,
                0
            ]
        ],
        "selectionToControlPathStrList": [
            "sizeOf.ScenarioGroups"
        ],
        "selectionToControlPathList": [
            [
                1,
                1
            ]
        ]
    },
    {
        "class": "CViewModel_TableForLargeData",
        "customData": {
            "header": [
                "Scenario",
                "Group Status",
                "Scenario Status"
            ],
            "streamingThreshold": 20,
            "allowScrollBelow": false
        },
        "dataPathStrList": [
            "sizeOf.ScenarioGroups.sizeOf",
            "sizeOf.ScenarioGroups.Scenarios",
            "sizeOf.ScenarioGroups.Scenarios.EntityGroupOfScenarioInstance.ScenarioTypeNameOfScenarioInstance.ScGrpStatus",
            "sizeOf.ScenarioGroups.Scenarios.ScGrpScStatus"
        ],
        "dataPathList": [
            [
                1,
                1,
                0
            ],
            [
                1,
                1,
                1
            ],
            [
                1,
                1,
                1,
                0,
                0,
                0
            ],
            [
                1,
                1,
                1,
                1
            ]
        ],
        "selectionToControlPathStrList": [],
        "selectionToControlPathList": []
    },
    {
        "class": "CViewModel_TableForLargeData",
        "customData": {
            "header": [
                "Traffic Case",
                "Exec Time"
            ],
            "streamingThreshold": 20,
            "allowScrollBelow": false
        },
        "dataPathStrList": [
            "sizeOf.EntityGroups.Scenarios.sizeOf",
            "sizeOf.EntityGroups.Scenarios.TrafficCases",
            "sizeOf.EntityGroups.Scenarios.TrafficCases.TcExecTime",
            "sizeOf.EntityGroups.Scenarios.TrafficCases.TcStats.TcStat"
        ],
        "dataPathList": [
            [
                0,
                1,
                2,
                0
            ],
            [
                0,
                1,
                2,
                2
            ],
            [
                0,
                1,
                2,
                2,
                0
            ],
            [
                0,
                1,
                2,
                2,
                1,
                0
            ]
        ],
        "selectionToControlPathStrList": [],
        "selectionToControlPathList": []
    },
    {
        "class": "CViewModel_RequestToggle",
        "customData": {
            "toggleGroups": [
                0,
                1
            ]
        },
        "dataPathStrList": [
            "sizeOf.EntityGroups.Scenarios.TrafficCases",
            "sizeOf.EntityGroups.Scenarios.TrafficCases"
        ],
        "dataPathList": [
            [
                0,
                1,
                2,
                1
            ],
            [
                0,
                1,
                2,
                2
            ]
        ],
        "selectionToControlPathStrList": [],
        "selectionToControlPathList": []
    },
    {
        "class": "CViewModel_RequestToggle",
        "customData": {
            "toggleGroups": [
                0,
                1
            ]
        },
        "dataPathStrList": [
            "sizeOf",
            "sizeOf"
        ],
        "dataPathList": [
            [
                0
            ],
            [
                1
            ]
        ],
        "selectionToControlPathStrList": [],
        "selectionToControlPathList": []
    }
]